2016-12-16 11:03:47.824 INFO  (main) [   ] o.e.j.s.Server jetty-9.3.8.v20160314
2016-12-16 11:03:48.289 INFO  (main) [   ] o.a.s.s.SolrDispatchFilter  ___      _       Welcome to Apache Solr™ version 6.3.0
2016-12-16 11:03:48.289 INFO  (main) [   ] o.a.s.s.SolrDispatchFilter / __| ___| |_ _   Starting in standalone mode on port 8983
2016-12-16 11:03:48.289 INFO  (main) [   ] o.a.s.s.SolrDispatchFilter \__ \/ _ \ | '_|  Install dir: /home/TheEdoardo93/git/SearchEngineForTheUnimibDiscoWebsite/solr-6.3.0
2016-12-16 11:03:48.379 INFO  (main) [   ] o.a.s.s.SolrDispatchFilter |___/\___/_|_|    Start time: 2016-12-16T11:03:48.291Z
2016-12-16 11:03:48.380 INFO  (main) [   ] o.a.s.s.StartupLoggingUtils Property solr.log.muteconsole given. Muting ConsoleAppender named CONSOLE
2016-12-16 11:03:48.402 INFO  (main) [   ] o.a.s.c.SolrResourceLoader Using system property solr.solr.home: /home/TheEdoardo93/git/SearchEngineForTheUnimibDiscoWebsite/solr-6.3.0/server/solr
2016-12-16 11:03:48.408 INFO  (main) [   ] o.a.s.c.SolrXmlConfig Loading container configuration from /home/TheEdoardo93/git/SearchEngineForTheUnimibDiscoWebsite/solr-6.3.0/server/solr/solr.xml
2016-12-16 11:03:48.729 INFO  (main) [   ] o.a.s.u.UpdateShardHandler Creating UpdateShardHandler HTTP client with params: socketTimeout=600000&connTimeout=60000&retry=true
2016-12-16 11:03:48.793 INFO  (main) [   ] o.a.s.c.CorePropertiesLocator Found 1 core definitions underneath /home/TheEdoardo93/git/SearchEngineForTheUnimibDiscoWebsite/solr-6.3.0/server/solr
2016-12-16 11:03:48.848 INFO  (main) [   ] o.a.s.c.CorePropertiesLocator Cores are: [ProgettoIR-indice]
2016-12-16 11:03:48.908 INFO  (coreLoadExecutor-6-thread-1) [   ] o.a.s.c.SolrConfig Using Lucene MatchVersion: 4.5.0
2016-12-16 11:03:48.923 INFO  (main) [   ] o.e.j.s.ServerConnector Started ServerConnector@5fbf5846{HTTP/1.1,[http/1.1]}{0.0.0.0:8983}
2016-12-16 11:03:48.923 INFO  (main) [   ] o.e.j.s.Server Started @1966ms
2016-12-16 11:03:49.013 INFO  (coreLoadExecutor-6-thread-1) [   ] o.a.s.s.IndexSchema [ProgettoIR-indice] Schema name=ProgettoIR-indice
2016-12-16 11:03:49.076 WARN  (coreLoadExecutor-6-thread-1) [   ] o.a.s.s.FieldTypePluginLoader TokenizerFactory is using deprecated 4.5.0 emulation. You should at some point declare and reindex to at least 6.0, because 5.x emulation is deprecated and will be removed in 7.0
2016-12-16 11:03:49.085 WARN  (coreLoadExecutor-6-thread-1) [   ] o.a.s.s.FieldTypePluginLoader TokenFilterFactory is using deprecated 4.5.0 emulation. You should at some point declare and reindex to at least 6.0, because 5.x emulation is deprecated and will be removed in 7.0
2016-12-16 11:03:49.107 WARN  (coreLoadExecutor-6-thread-1) [   ] o.a.s.s.FieldTypePluginLoader TokenizerFactory is using deprecated 4.5.0 emulation. You should at some point declare and reindex to at least 6.0, because 5.x emulation is deprecated and will be removed in 7.0
2016-12-16 11:03:49.107 WARN  (coreLoadExecutor-6-thread-1) [   ] o.a.s.s.FieldTypePluginLoader TokenFilterFactory is using deprecated 4.5.0 emulation. You should at some point declare and reindex to at least 6.0, because 5.x emulation is deprecated and will be removed in 7.0
2016-12-16 11:03:49.111 WARN  (coreLoadExecutor-6-thread-1) [   ] o.a.s.s.FieldTypePluginLoader CharFilterFactory is using deprecated 4.5.0 emulation. You should at some point declare and reindex to at least 6.0, because 5.x emulation is deprecated and will be removed in 7.0
2016-12-16 11:03:49.133 WARN  (coreLoadExecutor-6-thread-1) [   ] o.a.s.s.FieldTypePluginLoader TokenizerFactory is using deprecated 4.5.0 emulation. You should at some point declare and reindex to at least 6.0, because 5.x emulation is deprecated and will be removed in 7.0
2016-12-16 11:03:49.133 WARN  (coreLoadExecutor-6-thread-1) [   ] o.a.s.s.FieldTypePluginLoader TokenFilterFactory is using deprecated 4.5.0 emulation. You should at some point declare and reindex to at least 6.0, because 5.x emulation is deprecated and will be removed in 7.0
2016-12-16 11:03:49.136 WARN  (coreLoadExecutor-6-thread-1) [   ] o.a.s.s.FieldTypePluginLoader TokenFilterFactory is using deprecated 4.5.0 emulation. You should at some point declare and reindex to at least 6.0, because 5.x emulation is deprecated and will be removed in 7.0
2016-12-16 11:03:49.137 WARN  (coreLoadExecutor-6-thread-1) [   ] o.a.s.s.FieldTypePluginLoader TokenFilterFactory is using deprecated 4.5.0 emulation. You should at some point declare and reindex to at least 6.0, because 5.x emulation is deprecated and will be removed in 7.0
2016-12-16 11:03:49.139 WARN  (coreLoadExecutor-6-thread-1) [   ] o.a.s.s.FieldTypePluginLoader TokenFilterFactory is using deprecated 4.5.0 emulation. You should at some point declare and reindex to at least 6.0, because 5.x emulation is deprecated and will be removed in 7.0
2016-12-16 11:03:49.139 WARN  (coreLoadExecutor-6-thread-1) [   ] o.a.s.s.FieldTypePluginLoader TokenFilterFactory is using deprecated 4.5.0 emulation. You should at some point declare and reindex to at least 6.0, because 5.x emulation is deprecated and will be removed in 7.0
2016-12-16 11:03:49.140 WARN  (coreLoadExecutor-6-thread-1) [   ] o.a.s.s.FieldTypePluginLoader TokenFilterFactory is using deprecated 4.5.0 emulation. You should at some point declare and reindex to at least 6.0, because 5.x emulation is deprecated and will be removed in 7.0
2016-12-16 11:03:49.141 WARN  (coreLoadExecutor-6-thread-1) [   ] o.a.s.s.FieldTypePluginLoader TokenFilterFactory is using deprecated 4.5.0 emulation. You should at some point declare and reindex to at least 6.0, because 5.x emulation is deprecated and will be removed in 7.0
2016-12-16 11:03:49.145 WARN  (coreLoadExecutor-6-thread-1) [   ] o.a.s.s.FieldTypePluginLoader CharFilterFactory is using deprecated 4.5.0 emulation. You should at some point declare and reindex to at least 6.0, because 5.x emulation is deprecated and will be removed in 7.0
2016-12-16 11:03:49.145 WARN  (coreLoadExecutor-6-thread-1) [   ] o.a.s.s.FieldTypePluginLoader TokenizerFactory is using deprecated 4.5.0 emulation. You should at some point declare and reindex to at least 6.0, because 5.x emulation is deprecated and will be removed in 7.0
2016-12-16 11:03:49.146 WARN  (coreLoadExecutor-6-thread-1) [   ] o.a.s.s.FieldTypePluginLoader TokenFilterFactory is using deprecated 4.5.0 emulation. You should at some point declare and reindex to at least 6.0, because 5.x emulation is deprecated and will be removed in 7.0
2016-12-16 11:03:49.146 WARN  (coreLoadExecutor-6-thread-1) [   ] o.a.s.s.FieldTypePluginLoader TokenFilterFactory is using deprecated 4.5.0 emulation. You should at some point declare and reindex to at least 6.0, because 5.x emulation is deprecated and will be removed in 7.0
2016-12-16 11:03:49.146 WARN  (coreLoadExecutor-6-thread-1) [   ] o.a.s.s.FieldTypePluginLoader TokenFilterFactory is using deprecated 4.5.0 emulation. You should at some point declare and reindex to at least 6.0, because 5.x emulation is deprecated and will be removed in 7.0
2016-12-16 11:03:49.147 WARN  (coreLoadExecutor-6-thread-1) [   ] o.a.s.s.FieldTypePluginLoader TokenFilterFactory is using deprecated 4.5.0 emulation. You should at some point declare and reindex to at least 6.0, because 5.x emulation is deprecated and will be removed in 7.0
2016-12-16 11:03:49.147 WARN  (coreLoadExecutor-6-thread-1) [   ] o.a.s.s.FieldTypePluginLoader TokenFilterFactory is using deprecated 4.5.0 emulation. You should at some point declare and reindex to at least 6.0, because 5.x emulation is deprecated and will be removed in 7.0
2016-12-16 11:03:49.148 WARN  (coreLoadExecutor-6-thread-1) [   ] o.a.s.s.FieldTypePluginLoader TokenFilterFactory is using deprecated 4.5.0 emulation. You should at some point declare and reindex to at least 6.0, because 5.x emulation is deprecated and will be removed in 7.0
2016-12-16 11:03:49.156 WARN  (coreLoadExecutor-6-thread-1) [   ] o.a.s.s.IndexSchema [ProgettoIR-indice] default search field in schema is paginaHtmlDocente. WARNING: Deprecated, please use 'df' on request instead.
2016-12-16 11:03:49.156 WARN  (coreLoadExecutor-6-thread-1) [   ] o.a.s.s.IndexSchema [ProgettoIR-indice] query parser default operator is OR. WARNING: Deprecated, please use 'q.op' on request instead.
2016-12-16 11:03:49.159 INFO  (coreLoadExecutor-6-thread-1) [   ] o.a.s.s.IndexSchema Loaded schema ProgettoIR-indice/1.6 with uniqueid field id
2016-12-16 11:03:49.227 INFO  (coreLoadExecutor-6-thread-1) [   ] o.a.s.c.CoreContainer Creating SolrCore 'ProgettoIR-indice' using configuration from instancedir /home/TheEdoardo93/git/SearchEngineForTheUnimibDiscoWebsite/solr-6.3.0/server/solr/ProgettoIR/ProgettoIR-indice
2016-12-16 11:03:49.274 INFO  (coreLoadExecutor-6-thread-1) [   x:ProgettoIR-indice] o.a.s.c.SolrCore [[ProgettoIR-indice] ] Opening new SolrCore at [/home/TheEdoardo93/git/SearchEngineForTheUnimibDiscoWebsite/solr-6.3.0/server/solr/ProgettoIR/ProgettoIR-indice], dataDir=[/home/TheEdoardo93/git/SearchEngineForTheUnimibDiscoWebsite/solr-6.3.0/server/solr/ProgettoIR/ProgettoIR-indice/data/]
2016-12-16 11:03:49.640 INFO  (coreLoadExecutor-6-thread-1) [   x:ProgettoIR-indice] o.a.s.u.CommitTracker Hard AutoCommit: disabled
2016-12-16 11:03:49.641 INFO  (coreLoadExecutor-6-thread-1) [   x:ProgettoIR-indice] o.a.s.u.CommitTracker Soft AutoCommit: disabled
2016-12-16 11:03:49.719 INFO  (coreLoadExecutor-6-thread-1) [   x:ProgettoIR-indice] o.a.s.s.SolrIndexSearcher Opening [Searcher@fa2cc2b[ProgettoIR-indice] main]
2016-12-16 11:03:49.727 INFO  (coreLoadExecutor-6-thread-1) [   x:ProgettoIR-indice] o.a.s.r.ManagedResourceStorage File-based storage initialized to use dir: /home/TheEdoardo93/git/SearchEngineForTheUnimibDiscoWebsite/solr-6.3.0/server/solr/ProgettoIR/ProgettoIR-indice/conf
2016-12-16 11:03:49.741 INFO  (coreLoadExecutor-6-thread-1) [   x:ProgettoIR-indice] o.a.s.h.ReplicationHandler Commits will be reserved for  10000
2016-12-16 11:03:49.756 INFO  (searcherExecutor-7-thread-1-processing-x:ProgettoIR-indice) [   x:ProgettoIR-indice] o.a.s.c.SolrCore [ProgettoIR-indice] Registered new searcher Searcher@fa2cc2b[ProgettoIR-indice] main{ExitableDirectoryReader(UninvertingDirectoryReader())}
2016-12-16 11:03:56.238 INFO  (qtp606548741-21) [   ] o.a.s.s.HttpSolrCall [admin] webapp=null path=/admin/cores params={indexInfo=false&wt=json&_=1481886235921} status=0 QTime=44
2016-12-16 11:03:56.276 INFO  (qtp606548741-20) [   ] o.a.s.s.HttpSolrCall [admin] webapp=null path=/admin/info/system params={wt=json&_=1481886235922} status=0 QTime=75
2016-12-16 11:03:56.265 INFO  (qtp606548741-13) [   ] o.a.s.s.HttpSolrCall [admin] webapp=null path=/admin/info/system params={wt=json&_=1481886235922} status=0 QTime=65
2016-12-16 11:03:58.682 INFO  (qtp606548741-16) [   ] o.a.s.s.HttpSolrCall [admin] webapp=null path=/admin/cores params={indexInfo=false&wt=json&_=1481886235921} status=0 QTime=0
2016-12-16 11:03:58.707 INFO  (qtp606548741-18) [   ] o.a.s.s.HttpSolrCall [admin] webapp=null path=/admin/info/system params={wt=json&_=1481886235922} status=0 QTime=22
2016-12-16 11:03:58.710 INFO  (qtp606548741-14) [   x:ProgettoIR-indice] o.a.s.c.S.Request [ProgettoIR-indice]  webapp=/solr path=/admin/luke params={numTerms=0&show=index&wt=json&_=1481886238665} status=0 QTime=12
2016-12-16 11:03:58.714 INFO  (qtp606548741-15) [   x:ProgettoIR-indice] o.a.s.c.S.Request [ProgettoIR-indice]  webapp=/solr path=/admin/ping params={action=status&wt=json&_=1481886235923&ts=1481886235923} status=503 QTime=8
2016-12-16 11:03:58.730 INFO  (qtp606548741-12) [   x:ProgettoIR-indice] o.a.s.c.S.Request [ProgettoIR-indice]  webapp=/solr path=/replication params={wt=json&command=details&_=1481886238665} status=0 QTime=27
2016-12-16 11:03:58.733 INFO  (qtp606548741-19) [   x:ProgettoIR-indice] o.a.s.c.S.Request [ProgettoIR-indice]  webapp=/solr path=/admin/system params={wt=json&_=1481886238665} status=0 QTime=36
2016-12-16 11:04:02.312 INFO  (qtp606548741-21) [   ] o.a.s.s.HttpSolrCall [admin] webapp=null path=/admin/cores params={indexInfo=false&wt=json&_=1481886235921} status=0 QTime=0
2016-12-16 11:04:02.325 INFO  (qtp606548741-20) [   ] o.a.s.s.HttpSolrCall [admin] webapp=null path=/admin/info/system params={wt=json&_=1481886235922} status=0 QTime=10
2016-12-16 11:04:03.765 INFO  (qtp606548741-21) [   x:ProgettoIR-indice] o.a.s.c.S.Request [ProgettoIR-indice]  webapp=/solr path=/select params={q=*:*&indent=on&wt=json&_=1481886242164} hits=0 status=0 QTime=74
2016-12-16 11:04:08.347 INFO  (qtp606548741-14) [   ] o.a.s.s.HttpSolrCall [admin] webapp=null path=/admin/cores params={indexInfo=false&wt=json&_=1481886235921} status=0 QTime=0
2016-12-16 11:04:08.357 INFO  (qtp606548741-20) [   ] o.a.s.s.HttpSolrCall [admin] webapp=null path=/admin/info/system params={wt=json&_=1481886235922} status=0 QTime=9
2016-12-16 11:04:08.428 INFO  (qtp606548741-15) [   x:ProgettoIR-indice] o.a.s.c.S.Request [ProgettoIR-indice]  webapp=/solr path=/admin/luke params={show=schema&wt=json&_=1481886238665} status=0 QTime=66
2016-12-16 11:04:10.249 INFO  (qtp606548741-12) [   ] o.a.s.s.HttpSolrCall [admin] webapp=null path=/admin/cores params={indexInfo=false&wt=json&_=1481886235921} status=0 QTime=0
2016-12-16 11:04:10.260 INFO  (qtp606548741-19) [   x:ProgettoIR-indice] o.a.s.c.S.Request [ProgettoIR-indice]  webapp=/solr path=/admin/luke params={show=schema&wt=json&_=1481886238665} status=0 QTime=0
2016-12-16 11:04:10.284 INFO  (qtp606548741-15) [   x:ProgettoIR-indice] o.a.s.c.S.Request [ProgettoIR-indice]  webapp=/solr path=/config params={wt=json&_=1481886250176} status=0 QTime=23
2016-12-16 11:04:10.288 INFO  (qtp606548741-14) [   ] o.a.s.s.HttpSolrCall [admin] webapp=null path=/admin/info/system params={wt=json&_=1481886235922} status=0 QTime=28
2016-12-16 11:04:10.397 INFO  (qtp606548741-20) [   x:ProgettoIR-indice] o.a.s.c.S.Request [ProgettoIR-indice]  webapp=/solr path=/admin/luke params={numTerms=0&wt=json&_=1481886238665} status=0 QTime=0
2016-12-16 11:04:14.167 INFO  (qtp606548741-21) [   ] o.a.s.s.HttpSolrCall [admin] webapp=null path=/admin/cores params={indexInfo=false&wt=json&_=1481886235921} status=0 QTime=0
2016-12-16 11:04:14.183 INFO  (qtp606548741-13) [   x:ProgettoIR-indice] o.a.s.c.S.Request [ProgettoIR-indice]  webapp=/solr path=/admin/luke params={show=schema&wt=json&_=1481886238665} status=0 QTime=0
2016-12-16 11:04:14.197 INFO  (qtp606548741-18) [   ] o.a.s.s.HttpSolrCall [admin] webapp=null path=/admin/info/system params={wt=json&_=1481886235922} status=0 QTime=14
2016-12-16 11:04:14.309 INFO  (qtp606548741-16) [   x:ProgettoIR-indice] o.a.s.c.S.Request [ProgettoIR-indice]  webapp=/solr path=/admin/luke params={numTerms=0&wt=json&_=1481886238665} status=0 QTime=0
2016-12-16 11:10:18.237 INFO  (ShutdownMonitor) [   ] o.e.j.s.ServerConnector Stopped ServerConnector@5fbf5846{HTTP/1.1,[http/1.1]}{0.0.0.0:8983}
2016-12-16 11:10:18.237 INFO  (ShutdownMonitor) [   ] o.a.s.c.CoreContainer Shutting down CoreContainer instance=226744878
2016-12-16 11:10:18.243 INFO  (coreCloseExecutor-11-thread-1) [   x:ProgettoIR-indice] o.a.s.c.SolrCore [ProgettoIR-indice]  CLOSING SolrCore org.apache.solr.core.SolrCore@2176b090
2016-12-16 11:10:18.260 WARN  (ShutdownMonitor) [   ] o.e.j.s.ServletContextHandler ServletContextHandler.setHandler should not be called directly. Use insertHandler or setSessionHandler etc.
