2016-12-16 12:05:22.579 INFO  (main) [   ] o.e.j.s.Server jetty-9.3.8.v20160314
2016-12-16 12:05:22.958 INFO  (main) [   ] o.a.s.s.SolrDispatchFilter  ___      _       Welcome to Apache Solr™ version 6.3.0
2016-12-16 12:05:22.958 INFO  (main) [   ] o.a.s.s.SolrDispatchFilter / __| ___| |_ _   Starting in standalone mode on port 8983
2016-12-16 12:05:22.958 INFO  (main) [   ] o.a.s.s.SolrDispatchFilter \__ \/ _ \ | '_|  Install dir: /home/TheEdoardo93/git/SearchEngineForTheUnimibDiscoWebsite/solr-6.3.0
2016-12-16 12:05:23.053 INFO  (main) [   ] o.a.s.s.SolrDispatchFilter |___/\___/_|_|    Start time: 2016-12-16T12:05:22.960Z
2016-12-16 12:05:23.055 INFO  (main) [   ] o.a.s.s.StartupLoggingUtils Property solr.log.muteconsole given. Muting ConsoleAppender named CONSOLE
2016-12-16 12:05:23.076 INFO  (main) [   ] o.a.s.c.SolrResourceLoader Using system property solr.solr.home: /home/TheEdoardo93/git/SearchEngineForTheUnimibDiscoWebsite/solr-6.3.0/server/solr
2016-12-16 12:05:23.082 INFO  (main) [   ] o.a.s.c.SolrXmlConfig Loading container configuration from /home/TheEdoardo93/git/SearchEngineForTheUnimibDiscoWebsite/solr-6.3.0/server/solr/solr.xml
2016-12-16 12:05:23.382 INFO  (main) [   ] o.a.s.u.UpdateShardHandler Creating UpdateShardHandler HTTP client with params: socketTimeout=600000&connTimeout=60000&retry=true
2016-12-16 12:05:23.451 INFO  (main) [   ] o.a.s.c.CorePropertiesLocator Found 1 core definitions underneath /home/TheEdoardo93/git/SearchEngineForTheUnimibDiscoWebsite/solr-6.3.0/server/solr
2016-12-16 12:05:23.460 INFO  (main) [   ] o.a.s.c.CorePropertiesLocator Cores are: [ProgettoIR-indice]
2016-12-16 12:05:23.499 INFO  (main) [   ] o.e.j.s.ServerConnector Started ServerConnector@69cb74fa{HTTP/1.1,[http/1.1]}{0.0.0.0:8983}
2016-12-16 12:05:23.499 INFO  (main) [   ] o.e.j.s.Server Started @1702ms
2016-12-16 12:05:23.526 INFO  (coreLoadExecutor-6-thread-1) [   ] o.a.s.c.SolrConfig Using Lucene MatchVersion: 4.5.0
2016-12-16 12:05:23.627 INFO  (coreLoadExecutor-6-thread-1) [   ] o.a.s.s.IndexSchema [ProgettoIR-indice] Schema name=ProgettoIR-indice
2016-12-16 12:05:23.668 WARN  (coreLoadExecutor-6-thread-1) [   ] o.a.s.s.FieldTypePluginLoader TokenizerFactory is using deprecated 4.5.0 emulation. You should at some point declare and reindex to at least 6.0, because 5.x emulation is deprecated and will be removed in 7.0
2016-12-16 12:05:23.681 WARN  (coreLoadExecutor-6-thread-1) [   ] o.a.s.s.FieldTypePluginLoader TokenFilterFactory is using deprecated 4.5.0 emulation. You should at some point declare and reindex to at least 6.0, because 5.x emulation is deprecated and will be removed in 7.0
2016-12-16 12:05:23.711 WARN  (coreLoadExecutor-6-thread-1) [   ] o.a.s.s.FieldTypePluginLoader TokenizerFactory is using deprecated 4.5.0 emulation. You should at some point declare and reindex to at least 6.0, because 5.x emulation is deprecated and will be removed in 7.0
2016-12-16 12:05:23.711 WARN  (coreLoadExecutor-6-thread-1) [   ] o.a.s.s.FieldTypePluginLoader TokenFilterFactory is using deprecated 4.5.0 emulation. You should at some point declare and reindex to at least 6.0, because 5.x emulation is deprecated and will be removed in 7.0
2016-12-16 12:05:23.716 WARN  (coreLoadExecutor-6-thread-1) [   ] o.a.s.s.FieldTypePluginLoader CharFilterFactory is using deprecated 4.5.0 emulation. You should at some point declare and reindex to at least 6.0, because 5.x emulation is deprecated and will be removed in 7.0
2016-12-16 12:05:23.738 WARN  (coreLoadExecutor-6-thread-1) [   ] o.a.s.s.FieldTypePluginLoader TokenizerFactory is using deprecated 4.5.0 emulation. You should at some point declare and reindex to at least 6.0, because 5.x emulation is deprecated and will be removed in 7.0
2016-12-16 12:05:23.738 WARN  (coreLoadExecutor-6-thread-1) [   ] o.a.s.s.FieldTypePluginLoader TokenFilterFactory is using deprecated 4.5.0 emulation. You should at some point declare and reindex to at least 6.0, because 5.x emulation is deprecated and will be removed in 7.0
2016-12-16 12:05:23.741 WARN  (coreLoadExecutor-6-thread-1) [   ] o.a.s.s.FieldTypePluginLoader TokenFilterFactory is using deprecated 4.5.0 emulation. You should at some point declare and reindex to at least 6.0, because 5.x emulation is deprecated and will be removed in 7.0
2016-12-16 12:05:23.742 WARN  (coreLoadExecutor-6-thread-1) [   ] o.a.s.s.FieldTypePluginLoader TokenFilterFactory is using deprecated 4.5.0 emulation. You should at some point declare and reindex to at least 6.0, because 5.x emulation is deprecated and will be removed in 7.0
2016-12-16 12:05:23.744 WARN  (coreLoadExecutor-6-thread-1) [   ] o.a.s.s.FieldTypePluginLoader TokenFilterFactory is using deprecated 4.5.0 emulation. You should at some point declare and reindex to at least 6.0, because 5.x emulation is deprecated and will be removed in 7.0
2016-12-16 12:05:23.744 WARN  (coreLoadExecutor-6-thread-1) [   ] o.a.s.s.FieldTypePluginLoader TokenFilterFactory is using deprecated 4.5.0 emulation. You should at some point declare and reindex to at least 6.0, because 5.x emulation is deprecated and will be removed in 7.0
2016-12-16 12:05:23.746 WARN  (coreLoadExecutor-6-thread-1) [   ] o.a.s.s.FieldTypePluginLoader TokenFilterFactory is using deprecated 4.5.0 emulation. You should at some point declare and reindex to at least 6.0, because 5.x emulation is deprecated and will be removed in 7.0
2016-12-16 12:05:23.747 WARN  (coreLoadExecutor-6-thread-1) [   ] o.a.s.s.FieldTypePluginLoader TokenFilterFactory is using deprecated 4.5.0 emulation. You should at some point declare and reindex to at least 6.0, because 5.x emulation is deprecated and will be removed in 7.0
2016-12-16 12:05:23.750 WARN  (coreLoadExecutor-6-thread-1) [   ] o.a.s.s.FieldTypePluginLoader CharFilterFactory is using deprecated 4.5.0 emulation. You should at some point declare and reindex to at least 6.0, because 5.x emulation is deprecated and will be removed in 7.0
2016-12-16 12:05:23.751 WARN  (coreLoadExecutor-6-thread-1) [   ] o.a.s.s.FieldTypePluginLoader TokenizerFactory is using deprecated 4.5.0 emulation. You should at some point declare and reindex to at least 6.0, because 5.x emulation is deprecated and will be removed in 7.0
2016-12-16 12:05:23.751 WARN  (coreLoadExecutor-6-thread-1) [   ] o.a.s.s.FieldTypePluginLoader TokenFilterFactory is using deprecated 4.5.0 emulation. You should at some point declare and reindex to at least 6.0, because 5.x emulation is deprecated and will be removed in 7.0
2016-12-16 12:05:23.751 WARN  (coreLoadExecutor-6-thread-1) [   ] o.a.s.s.FieldTypePluginLoader TokenFilterFactory is using deprecated 4.5.0 emulation. You should at some point declare and reindex to at least 6.0, because 5.x emulation is deprecated and will be removed in 7.0
2016-12-16 12:05:23.752 WARN  (coreLoadExecutor-6-thread-1) [   ] o.a.s.s.FieldTypePluginLoader TokenFilterFactory is using deprecated 4.5.0 emulation. You should at some point declare and reindex to at least 6.0, because 5.x emulation is deprecated and will be removed in 7.0
2016-12-16 12:05:23.752 WARN  (coreLoadExecutor-6-thread-1) [   ] o.a.s.s.FieldTypePluginLoader TokenFilterFactory is using deprecated 4.5.0 emulation. You should at some point declare and reindex to at least 6.0, because 5.x emulation is deprecated and will be removed in 7.0
2016-12-16 12:05:23.752 WARN  (coreLoadExecutor-6-thread-1) [   ] o.a.s.s.FieldTypePluginLoader TokenFilterFactory is using deprecated 4.5.0 emulation. You should at some point declare and reindex to at least 6.0, because 5.x emulation is deprecated and will be removed in 7.0
2016-12-16 12:05:23.753 WARN  (coreLoadExecutor-6-thread-1) [   ] o.a.s.s.FieldTypePluginLoader TokenFilterFactory is using deprecated 4.5.0 emulation. You should at some point declare and reindex to at least 6.0, because 5.x emulation is deprecated and will be removed in 7.0
2016-12-16 12:05:23.760 WARN  (coreLoadExecutor-6-thread-1) [   ] o.a.s.s.IndexSchema [ProgettoIR-indice] default search field in schema is paginaHtmlDocente. WARNING: Deprecated, please use 'df' on request instead.
2016-12-16 12:05:23.760 WARN  (coreLoadExecutor-6-thread-1) [   ] o.a.s.s.IndexSchema [ProgettoIR-indice] query parser default operator is OR. WARNING: Deprecated, please use 'q.op' on request instead.
2016-12-16 12:05:23.762 INFO  (coreLoadExecutor-6-thread-1) [   ] o.a.s.s.IndexSchema Loaded schema ProgettoIR-indice/1.6 with uniqueid field idDocumento
2016-12-16 12:05:23.822 INFO  (coreLoadExecutor-6-thread-1) [   ] o.a.s.c.CoreContainer Creating SolrCore 'ProgettoIR-indice' using configuration from instancedir /home/TheEdoardo93/git/SearchEngineForTheUnimibDiscoWebsite/solr-6.3.0/server/solr/ProgettoIR/ProgettoIR-indice
2016-12-16 12:05:23.874 INFO  (coreLoadExecutor-6-thread-1) [   x:ProgettoIR-indice] o.a.s.c.SolrCore [[ProgettoIR-indice] ] Opening new SolrCore at [/home/TheEdoardo93/git/SearchEngineForTheUnimibDiscoWebsite/solr-6.3.0/server/solr/ProgettoIR/ProgettoIR-indice], dataDir=[/home/TheEdoardo93/git/SearchEngineForTheUnimibDiscoWebsite/solr-6.3.0/server/solr/ProgettoIR/ProgettoIR-indice/data/]
2016-12-16 12:05:24.202 INFO  (coreLoadExecutor-6-thread-1) [   x:ProgettoIR-indice] o.a.s.u.CommitTracker Hard AutoCommit: disabled
2016-12-16 12:05:24.203 INFO  (coreLoadExecutor-6-thread-1) [   x:ProgettoIR-indice] o.a.s.u.CommitTracker Soft AutoCommit: disabled
2016-12-16 12:05:24.294 INFO  (coreLoadExecutor-6-thread-1) [   x:ProgettoIR-indice] o.a.s.s.SolrIndexSearcher Opening [Searcher@7bf679e8[ProgettoIR-indice] main]
2016-12-16 12:05:24.301 INFO  (coreLoadExecutor-6-thread-1) [   x:ProgettoIR-indice] o.a.s.r.ManagedResourceStorage File-based storage initialized to use dir: /home/TheEdoardo93/git/SearchEngineForTheUnimibDiscoWebsite/solr-6.3.0/server/solr/ProgettoIR/ProgettoIR-indice/conf
2016-12-16 12:05:24.316 INFO  (coreLoadExecutor-6-thread-1) [   x:ProgettoIR-indice] o.a.s.h.ReplicationHandler Commits will be reserved for  10000
2016-12-16 12:05:24.331 INFO  (searcherExecutor-7-thread-1-processing-x:ProgettoIR-indice) [   x:ProgettoIR-indice] o.a.s.c.SolrCore [ProgettoIR-indice] Registered new searcher Searcher@7bf679e8[ProgettoIR-indice] main{ExitableDirectoryReader(UninvertingDirectoryReader(Uninverting(_5l(6.3.0):C1) Uninverting(_5m(6.3.0):C1) Uninverting(_5n(6.3.0):C1) Uninverting(_5o(6.3.0):C1)))}
2016-12-16 12:05:30.267 INFO  (qtp606548741-12) [   ] o.a.s.s.HttpSolrCall [admin] webapp=null path=/admin/cores params={indexInfo=false&wt=json&_=1481889929801} status=0 QTime=13
2016-12-16 12:05:30.299 INFO  (qtp606548741-20) [   ] o.a.s.s.HttpSolrCall [admin] webapp=null path=/admin/info/system params={wt=json&_=1481889929802} status=0 QTime=45
2016-12-16 12:05:32.587 INFO  (qtp606548741-21) [   ] o.a.s.s.HttpSolrCall [admin] webapp=null path=/admin/cores params={indexInfo=false&wt=json&_=1481889929801} status=0 QTime=0
2016-12-16 12:05:32.601 INFO  (qtp606548741-21) [   x:ProgettoIR-indice] o.a.s.c.S.Request [ProgettoIR-indice]  webapp=/solr path=/replication params={wt=json&command=details&_=1481889932570} status=0 QTime=8
2016-12-16 12:05:32.607 INFO  (qtp606548741-12) [   x:ProgettoIR-indice] o.a.s.c.S.Request [ProgettoIR-indice]  webapp=/solr path=/admin/ping params={action=status&wt=json&_=1481889929802&ts=1481889929802} status=503 QTime=5
2016-12-16 12:05:32.617 INFO  (qtp606548741-15) [   x:ProgettoIR-indice] o.a.s.c.S.Request [ProgettoIR-indice]  webapp=/solr path=/admin/luke params={numTerms=0&show=index&wt=json&_=1481889932569} status=0 QTime=26
2016-12-16 12:05:32.626 INFO  (qtp606548741-13) [   x:ProgettoIR-indice] o.a.s.c.S.Request [ProgettoIR-indice]  webapp=/solr path=/admin/system params={wt=json&_=1481889932570} status=0 QTime=26
2016-12-16 12:05:32.640 INFO  (qtp606548741-17) [   ] o.a.s.s.HttpSolrCall [admin] webapp=null path=/admin/info/system params={wt=json&_=1481889929802} status=0 QTime=52
2016-12-16 12:05:37.480 INFO  (qtp606548741-19) [   x:ProgettoIR-indice] o.a.s.c.S.Request [ProgettoIR-indice]  webapp=/solr path=/admin/ping params={wt=javabin&version=2} hits=4 status=0 QTime=26
2016-12-16 12:05:37.481 INFO  (qtp606548741-19) [   x:ProgettoIR-indice] o.a.s.c.S.Request [ProgettoIR-indice]  webapp=/solr path=/admin/ping params={wt=javabin&version=2} status=0 QTime=26
2016-12-16 12:05:37.624 INFO  (qtp606548741-21) [   x:ProgettoIR-indice] o.a.s.u.DirectUpdateHandler2 [ProgettoIR-indice] REMOVING ALL DOCUMENTS FROM INDEX
2016-12-16 12:05:37.626 INFO  (qtp606548741-21) [   x:ProgettoIR-indice] o.a.s.u.p.LogUpdateProcessorFactory [ProgettoIR-indice]  webapp=/solr path=/update params={wt=javabin&version=2}{deleteByQuery=*:*} 0 47
2016-12-16 12:05:37.635 INFO  (qtp606548741-20) [   x:ProgettoIR-indice] o.a.s.u.DirectUpdateHandler2 start commit{,optimize=false,openSearcher=true,waitSearcher=true,expungeDeletes=false,softCommit=false,prepareCommit=false}
2016-12-16 12:05:37.635 INFO  (qtp606548741-20) [   x:ProgettoIR-indice] o.a.s.u.SolrIndexWriter Calling setCommitData with IW:org.apache.solr.update.SolrIndexWriter@690323d8
2016-12-16 12:05:37.712 INFO  (qtp606548741-20) [   x:ProgettoIR-indice] o.a.s.s.SolrIndexSearcher Opening [Searcher@2580d926[ProgettoIR-indice] main]
2016-12-16 12:05:37.714 INFO  (qtp606548741-20) [   x:ProgettoIR-indice] o.a.s.u.DirectUpdateHandler2 end_commit_flush
2016-12-16 12:05:37.714 INFO  (searcherExecutor-7-thread-1-processing-x:ProgettoIR-indice) [   x:ProgettoIR-indice] o.a.s.c.SolrCore [ProgettoIR-indice] Registered new searcher Searcher@2580d926[ProgettoIR-indice] main{ExitableDirectoryReader(UninvertingDirectoryReader())}
2016-12-16 12:05:37.720 INFO  (qtp606548741-20) [   x:ProgettoIR-indice] o.a.s.u.p.LogUpdateProcessorFactory [ProgettoIR-indice]  webapp=/solr path=/update params={waitSearcher=true&commit=true&softCommit=false&wt=javabin&version=2}{commit=} 0 86
2016-12-16 12:05:37.812 INFO  (qtp606548741-13) [   x:ProgettoIR-indice] o.a.s.u.p.LogUpdateProcessorFactory [ProgettoIR-indice]  webapp=/solr path=/update params={wt=javabin&version=2}{add=[940547b7-b261-4d36-86c9-63bcf066ac9e]} 0 83
2016-12-16 12:05:37.816 INFO  (qtp606548741-12) [   x:ProgettoIR-indice] o.a.s.u.DirectUpdateHandler2 start commit{,optimize=false,openSearcher=true,waitSearcher=true,expungeDeletes=false,softCommit=false,prepareCommit=false}
2016-12-16 12:05:37.816 INFO  (qtp606548741-12) [   x:ProgettoIR-indice] o.a.s.u.SolrIndexWriter Calling setCommitData with IW:org.apache.solr.update.SolrIndexWriter@690323d8
2016-12-16 12:05:38.306 INFO  (qtp606548741-12) [   x:ProgettoIR-indice] o.a.s.s.SolrIndexSearcher Opening [Searcher@22bf775[ProgettoIR-indice] main]
2016-12-16 12:05:38.307 INFO  (qtp606548741-12) [   x:ProgettoIR-indice] o.a.s.u.DirectUpdateHandler2 end_commit_flush
2016-12-16 12:05:38.307 INFO  (searcherExecutor-7-thread-1-processing-x:ProgettoIR-indice) [   x:ProgettoIR-indice] o.a.s.c.SolrCore [ProgettoIR-indice] Registered new searcher Searcher@22bf775[ProgettoIR-indice] main{ExitableDirectoryReader(UninvertingDirectoryReader(Uninverting(_5p(6.3.0):C1)))}
2016-12-16 12:05:38.307 INFO  (qtp606548741-12) [   x:ProgettoIR-indice] o.a.s.u.p.LogUpdateProcessorFactory [ProgettoIR-indice]  webapp=/solr path=/update params={waitSearcher=true&commit=true&softCommit=false&wt=javabin&version=2}{commit=} 0 491
2016-12-16 12:05:38.316 INFO  (qtp606548741-19) [   x:ProgettoIR-indice] o.a.s.u.p.LogUpdateProcessorFactory [ProgettoIR-indice]  webapp=/solr path=/update params={wt=javabin&version=2}{add=[a75fbfce-deb4-4bd6-9838-4fcd0d40726d]} 0 4
2016-12-16 12:05:38.321 INFO  (qtp606548741-14) [   x:ProgettoIR-indice] o.a.s.u.DirectUpdateHandler2 start commit{,optimize=false,openSearcher=true,waitSearcher=true,expungeDeletes=false,softCommit=false,prepareCommit=false}
2016-12-16 12:05:38.321 INFO  (qtp606548741-14) [   x:ProgettoIR-indice] o.a.s.u.SolrIndexWriter Calling setCommitData with IW:org.apache.solr.update.SolrIndexWriter@690323d8
2016-12-16 12:05:38.786 INFO  (qtp606548741-14) [   x:ProgettoIR-indice] o.a.s.s.SolrIndexSearcher Opening [Searcher@574810a6[ProgettoIR-indice] main]
2016-12-16 12:05:38.787 INFO  (qtp606548741-14) [   x:ProgettoIR-indice] o.a.s.u.DirectUpdateHandler2 end_commit_flush
2016-12-16 12:05:38.787 INFO  (searcherExecutor-7-thread-1-processing-x:ProgettoIR-indice) [   x:ProgettoIR-indice] o.a.s.c.SolrCore [ProgettoIR-indice] Registered new searcher Searcher@574810a6[ProgettoIR-indice] main{ExitableDirectoryReader(UninvertingDirectoryReader(Uninverting(_5p(6.3.0):C1) Uninverting(_5q(6.3.0):C1)))}
2016-12-16 12:05:38.787 INFO  (qtp606548741-14) [   x:ProgettoIR-indice] o.a.s.u.p.LogUpdateProcessorFactory [ProgettoIR-indice]  webapp=/solr path=/update params={waitSearcher=true&commit=true&softCommit=false&wt=javabin&version=2}{commit=} 0 466
2016-12-16 12:05:38.795 INFO  (qtp606548741-15) [   x:ProgettoIR-indice] o.a.s.u.p.LogUpdateProcessorFactory [ProgettoIR-indice]  webapp=/solr path=/update params={wt=javabin&version=2}{add=[13255a08-efca-4ed0-b339-00c6041ab15c]} 0 3
2016-12-16 12:05:38.800 INFO  (qtp606548741-21) [   x:ProgettoIR-indice] o.a.s.u.DirectUpdateHandler2 start commit{,optimize=false,openSearcher=true,waitSearcher=true,expungeDeletes=false,softCommit=false,prepareCommit=false}
2016-12-16 12:05:38.800 INFO  (qtp606548741-21) [   x:ProgettoIR-indice] o.a.s.u.SolrIndexWriter Calling setCommitData with IW:org.apache.solr.update.SolrIndexWriter@690323d8
2016-12-16 12:05:39.326 INFO  (qtp606548741-21) [   x:ProgettoIR-indice] o.a.s.s.SolrIndexSearcher Opening [Searcher@1b106175[ProgettoIR-indice] main]
2016-12-16 12:05:39.328 INFO  (qtp606548741-21) [   x:ProgettoIR-indice] o.a.s.u.DirectUpdateHandler2 end_commit_flush
2016-12-16 12:05:39.328 INFO  (searcherExecutor-7-thread-1-processing-x:ProgettoIR-indice) [   x:ProgettoIR-indice] o.a.s.c.SolrCore [ProgettoIR-indice] Registered new searcher Searcher@1b106175[ProgettoIR-indice] main{ExitableDirectoryReader(UninvertingDirectoryReader(Uninverting(_5p(6.3.0):C1) Uninverting(_5q(6.3.0):C1) Uninverting(_5r(6.3.0):C1)))}
2016-12-16 12:05:39.329 INFO  (qtp606548741-21) [   x:ProgettoIR-indice] o.a.s.u.p.LogUpdateProcessorFactory [ProgettoIR-indice]  webapp=/solr path=/update params={waitSearcher=true&commit=true&softCommit=false&wt=javabin&version=2}{commit=} 0 529
2016-12-16 12:05:39.343 INFO  (qtp606548741-17) [   x:ProgettoIR-indice] o.a.s.u.p.LogUpdateProcessorFactory [ProgettoIR-indice]  webapp=/solr path=/update params={wt=javabin&version=2}{add=[89d77226-6d99-4037-a50a-514f6cb805f4]} 0 6
2016-12-16 12:05:39.349 INFO  (qtp606548741-20) [   x:ProgettoIR-indice] o.a.s.u.DirectUpdateHandler2 start commit{,optimize=false,openSearcher=true,waitSearcher=true,expungeDeletes=false,softCommit=false,prepareCommit=false}
2016-12-16 12:05:39.349 INFO  (qtp606548741-20) [   x:ProgettoIR-indice] o.a.s.u.SolrIndexWriter Calling setCommitData with IW:org.apache.solr.update.SolrIndexWriter@690323d8
2016-12-16 12:05:39.795 INFO  (qtp606548741-20) [   x:ProgettoIR-indice] o.a.s.s.SolrIndexSearcher Opening [Searcher@4e2a4377[ProgettoIR-indice] main]
2016-12-16 12:05:39.796 INFO  (qtp606548741-20) [   x:ProgettoIR-indice] o.a.s.u.DirectUpdateHandler2 end_commit_flush
2016-12-16 12:05:39.797 INFO  (searcherExecutor-7-thread-1-processing-x:ProgettoIR-indice) [   x:ProgettoIR-indice] o.a.s.c.SolrCore [ProgettoIR-indice] Registered new searcher Searcher@4e2a4377[ProgettoIR-indice] main{ExitableDirectoryReader(UninvertingDirectoryReader(Uninverting(_5p(6.3.0):C1) Uninverting(_5q(6.3.0):C1) Uninverting(_5r(6.3.0):C1) Uninverting(_5s(6.3.0):C1)))}
2016-12-16 12:05:39.798 INFO  (qtp606548741-20) [   x:ProgettoIR-indice] o.a.s.u.p.LogUpdateProcessorFactory [ProgettoIR-indice]  webapp=/solr path=/update params={waitSearcher=true&commit=true&softCommit=false&wt=javabin&version=2}{commit=} 0 448
2016-12-16 12:05:50.512 INFO  (qtp606548741-19) [   x:ProgettoIR-indice] o.a.s.c.S.Request [ProgettoIR-indice]  webapp=/solr path=/admin/ping params={wt=javabin&version=2} hits=4 status=0 QTime=1
2016-12-16 12:05:50.513 INFO  (qtp606548741-19) [   x:ProgettoIR-indice] o.a.s.c.S.Request [ProgettoIR-indice]  webapp=/solr path=/admin/ping params={wt=javabin&version=2} status=0 QTime=1
2016-12-16 12:05:50.568 INFO  (qtp606548741-14) [   x:ProgettoIR-indice] o.a.s.u.DirectUpdateHandler2 [ProgettoIR-indice] REMOVING ALL DOCUMENTS FROM INDEX
2016-12-16 12:05:50.569 INFO  (qtp606548741-14) [   x:ProgettoIR-indice] o.a.s.u.p.LogUpdateProcessorFactory [ProgettoIR-indice]  webapp=/solr path=/update params={wt=javabin&version=2}{deleteByQuery=*:*} 0 1
2016-12-16 12:05:50.576 INFO  (qtp606548741-15) [   x:ProgettoIR-indice] o.a.s.u.DirectUpdateHandler2 start commit{,optimize=false,openSearcher=true,waitSearcher=true,expungeDeletes=false,softCommit=false,prepareCommit=false}
2016-12-16 12:05:50.576 INFO  (qtp606548741-15) [   x:ProgettoIR-indice] o.a.s.u.SolrIndexWriter Calling setCommitData with IW:org.apache.solr.update.SolrIndexWriter@690323d8
2016-12-16 12:05:50.649 INFO  (qtp606548741-15) [   x:ProgettoIR-indice] o.a.s.s.SolrIndexSearcher Opening [Searcher@17baafa[ProgettoIR-indice] main]
2016-12-16 12:05:50.649 INFO  (qtp606548741-15) [   x:ProgettoIR-indice] o.a.s.u.DirectUpdateHandler2 end_commit_flush
2016-12-16 12:05:50.649 INFO  (searcherExecutor-7-thread-1-processing-x:ProgettoIR-indice) [   x:ProgettoIR-indice] o.a.s.c.SolrCore [ProgettoIR-indice] Registered new searcher Searcher@17baafa[ProgettoIR-indice] main{ExitableDirectoryReader(UninvertingDirectoryReader())}
2016-12-16 12:05:50.655 INFO  (qtp606548741-15) [   x:ProgettoIR-indice] o.a.s.u.p.LogUpdateProcessorFactory [ProgettoIR-indice]  webapp=/solr path=/update params={waitSearcher=true&commit=true&softCommit=false&wt=javabin&version=2}{commit=} 0 79
2016-12-16 12:05:50.671 INFO  (qtp606548741-21) [   x:ProgettoIR-indice] o.a.s.u.p.LogUpdateProcessorFactory [ProgettoIR-indice]  webapp=/solr path=/update params={wt=javabin&version=2}{add=[9792ebee-6a45-4517-b191-818349b11241]} 0 4
2016-12-16 12:05:50.676 INFO  (qtp606548741-17) [   x:ProgettoIR-indice] o.a.s.u.DirectUpdateHandler2 start commit{,optimize=false,openSearcher=true,waitSearcher=true,expungeDeletes=false,softCommit=false,prepareCommit=false}
2016-12-16 12:05:50.677 INFO  (qtp606548741-17) [   x:ProgettoIR-indice] o.a.s.u.SolrIndexWriter Calling setCommitData with IW:org.apache.solr.update.SolrIndexWriter@690323d8
2016-12-16 12:05:51.138 INFO  (qtp606548741-17) [   x:ProgettoIR-indice] o.a.s.s.SolrIndexSearcher Opening [Searcher@7f9af399[ProgettoIR-indice] main]
2016-12-16 12:05:51.139 INFO  (qtp606548741-17) [   x:ProgettoIR-indice] o.a.s.u.DirectUpdateHandler2 end_commit_flush
2016-12-16 12:05:51.139 INFO  (searcherExecutor-7-thread-1-processing-x:ProgettoIR-indice) [   x:ProgettoIR-indice] o.a.s.c.SolrCore [ProgettoIR-indice] Registered new searcher Searcher@7f9af399[ProgettoIR-indice] main{ExitableDirectoryReader(UninvertingDirectoryReader(Uninverting(_5t(6.3.0):C1)))}
2016-12-16 12:05:51.139 INFO  (qtp606548741-17) [   x:ProgettoIR-indice] o.a.s.u.p.LogUpdateProcessorFactory [ProgettoIR-indice]  webapp=/solr path=/update params={waitSearcher=true&commit=true&softCommit=false&wt=javabin&version=2}{commit=} 0 463
2016-12-16 12:05:51.149 INFO  (qtp606548741-20) [   x:ProgettoIR-indice] o.a.s.u.p.LogUpdateProcessorFactory [ProgettoIR-indice]  webapp=/solr path=/update params={wt=javabin&version=2}{add=[5cea94cc-c7c2-4c36-84e0-ad71cad37001]} 0 3
2016-12-16 12:05:51.153 INFO  (qtp606548741-12) [   x:ProgettoIR-indice] o.a.s.u.DirectUpdateHandler2 start commit{,optimize=false,openSearcher=true,waitSearcher=true,expungeDeletes=false,softCommit=false,prepareCommit=false}
2016-12-16 12:05:51.153 INFO  (qtp606548741-12) [   x:ProgettoIR-indice] o.a.s.u.SolrIndexWriter Calling setCommitData with IW:org.apache.solr.update.SolrIndexWriter@690323d8
2016-12-16 12:05:51.636 INFO  (qtp606548741-12) [   x:ProgettoIR-indice] o.a.s.s.SolrIndexSearcher Opening [Searcher@291c4e3b[ProgettoIR-indice] main]
2016-12-16 12:05:51.636 INFO  (qtp606548741-12) [   x:ProgettoIR-indice] o.a.s.u.DirectUpdateHandler2 end_commit_flush
2016-12-16 12:05:51.637 INFO  (searcherExecutor-7-thread-1-processing-x:ProgettoIR-indice) [   x:ProgettoIR-indice] o.a.s.c.SolrCore [ProgettoIR-indice] Registered new searcher Searcher@291c4e3b[ProgettoIR-indice] main{ExitableDirectoryReader(UninvertingDirectoryReader(Uninverting(_5t(6.3.0):C1) Uninverting(_5u(6.3.0):C1)))}
2016-12-16 12:05:51.637 INFO  (qtp606548741-12) [   x:ProgettoIR-indice] o.a.s.u.p.LogUpdateProcessorFactory [ProgettoIR-indice]  webapp=/solr path=/update params={waitSearcher=true&commit=true&softCommit=false&wt=javabin&version=2}{commit=} 0 483
2016-12-16 12:05:51.644 INFO  (qtp606548741-16) [   x:ProgettoIR-indice] o.a.s.u.p.LogUpdateProcessorFactory [ProgettoIR-indice]  webapp=/solr path=/update params={wt=javabin&version=2}{add=[65ec11a7-da69-4009-9a4d-2ed264a11c70]} 0 3
2016-12-16 12:05:51.649 INFO  (qtp606548741-19) [   x:ProgettoIR-indice] o.a.s.u.DirectUpdateHandler2 start commit{,optimize=false,openSearcher=true,waitSearcher=true,expungeDeletes=false,softCommit=false,prepareCommit=false}
2016-12-16 12:05:51.649 INFO  (qtp606548741-19) [   x:ProgettoIR-indice] o.a.s.u.SolrIndexWriter Calling setCommitData with IW:org.apache.solr.update.SolrIndexWriter@690323d8
2016-12-16 12:05:52.050 INFO  (qtp606548741-19) [   x:ProgettoIR-indice] o.a.s.s.SolrIndexSearcher Opening [Searcher@3524898[ProgettoIR-indice] main]
2016-12-16 12:05:52.051 INFO  (searcherExecutor-7-thread-1-processing-x:ProgettoIR-indice) [   x:ProgettoIR-indice] o.a.s.c.SolrCore [ProgettoIR-indice] Registered new searcher Searcher@3524898[ProgettoIR-indice] main{ExitableDirectoryReader(UninvertingDirectoryReader(Uninverting(_5t(6.3.0):C1) Uninverting(_5u(6.3.0):C1) Uninverting(_5v(6.3.0):C1)))}
2016-12-16 12:05:52.051 INFO  (qtp606548741-19) [   x:ProgettoIR-indice] o.a.s.u.DirectUpdateHandler2 end_commit_flush
2016-12-16 12:05:52.051 INFO  (qtp606548741-19) [   x:ProgettoIR-indice] o.a.s.u.p.LogUpdateProcessorFactory [ProgettoIR-indice]  webapp=/solr path=/update params={waitSearcher=true&commit=true&softCommit=false&wt=javabin&version=2}{commit=} 0 402
2016-12-16 12:05:52.062 INFO  (qtp606548741-14) [   x:ProgettoIR-indice] o.a.s.u.p.LogUpdateProcessorFactory [ProgettoIR-indice]  webapp=/solr path=/update params={wt=javabin&version=2}{add=[7ed34654-9074-485d-81fc-03983bc37ad3]} 0 4
2016-12-16 12:05:52.066 INFO  (qtp606548741-15) [   x:ProgettoIR-indice] o.a.s.u.DirectUpdateHandler2 start commit{,optimize=false,openSearcher=true,waitSearcher=true,expungeDeletes=false,softCommit=false,prepareCommit=false}
2016-12-16 12:05:52.066 INFO  (qtp606548741-15) [   x:ProgettoIR-indice] o.a.s.u.SolrIndexWriter Calling setCommitData with IW:org.apache.solr.update.SolrIndexWriter@690323d8
2016-12-16 12:05:52.553 INFO  (qtp606548741-15) [   x:ProgettoIR-indice] o.a.s.s.SolrIndexSearcher Opening [Searcher@59d61c9e[ProgettoIR-indice] main]
2016-12-16 12:05:52.553 INFO  (qtp606548741-15) [   x:ProgettoIR-indice] o.a.s.u.DirectUpdateHandler2 end_commit_flush
2016-12-16 12:05:52.554 INFO  (searcherExecutor-7-thread-1-processing-x:ProgettoIR-indice) [   x:ProgettoIR-indice] o.a.s.c.SolrCore [ProgettoIR-indice] Registered new searcher Searcher@59d61c9e[ProgettoIR-indice] main{ExitableDirectoryReader(UninvertingDirectoryReader(Uninverting(_5t(6.3.0):C1) Uninverting(_5u(6.3.0):C1) Uninverting(_5v(6.3.0):C1) Uninverting(_5w(6.3.0):C1)))}
2016-12-16 12:05:52.554 INFO  (qtp606548741-15) [   x:ProgettoIR-indice] o.a.s.u.p.LogUpdateProcessorFactory [ProgettoIR-indice]  webapp=/solr path=/update params={waitSearcher=true&commit=true&softCommit=false&wt=javabin&version=2}{commit=} 0 488
2016-12-16 12:06:18.615 INFO  (qtp606548741-13) [   x:ProgettoIR-indice] o.a.s.c.S.Request [ProgettoIR-indice]  webapp=/solr path=/select params={q=paginaHtml:"Professore+di+Seconda+Fascia"&defType=edismax&fl=id,+nome,+cognome,+ruolo,+paginaHtml&start=0&wt=javabin&version=2} hits=1 status=0 QTime=158
2016-12-16 12:06:36.249 INFO  (qtp606548741-16) [   x:ProgettoIR-indice] o.a.s.c.S.Request [ProgettoIR-indice]  webapp=/solr path=/select params={q=paginaHtmlDocente:"Professore+di+Seconda+Fascia"&defType=edismax&fl=id,+nome,+cognome,+ruolo,+paginaHtml&start=0&wt=javabin&version=2} hits=1 status=0 QTime=2
2016-12-16 12:06:51.623 INFO  (qtp606548741-19) [   x:ProgettoIR-indice] o.a.s.c.S.Request [ProgettoIR-indice]  webapp=/solr path=/select params={q=nomeDocente:Giovanni&defType=edismax&fl=id,+nome,+cognome,+ruolo,+paginaHtml&start=0&wt=javabin&version=2} hits=1 status=0 QTime=2
2016-12-16 12:07:16.770 INFO  (qtp606548741-17) [   x:ProgettoIR-indice] o.a.s.c.S.Request [ProgettoIR-indice]  webapp=/solr path=/select params={q=nomeDocente:Giovanni&defType=edismax&fl=idDocumento,+nomeDocente,+cognomeDocente,+ruoloDocente,+paginaHtmlDocente&start=0&wt=javabin&version=2} hits=1 status=0 QTime=1
2016-12-16 12:07:55.512 INFO  (qtp606548741-19) [   x:ProgettoIR-indice] o.a.s.c.S.Request [ProgettoIR-indice]  webapp=/solr path=/select params={q=nomeDocente:Giovanni&defType=edismax&fl=idDocumento,+nomeDocente,+cognomeDocente,+ruoloDocente,+paginaHtmlDocente,+emailDocente,+luogoRicevimentoDocente,+oraRicevimentoDocente,+docenteInformatica,+docenteTtc&start=0&wt=javabin&version=2} hits=1 status=0 QTime=1
2016-12-16 12:08:28.192 INFO  (qtp606548741-13) [   x:ProgettoIR-indice] o.a.s.c.S.Request [ProgettoIR-indice]  webapp=/solr path=/select params={q=paginaHtmlDocente:"Professore+di+Seconda+Fascia"&defType=edismax&fl=idDocumento,+nomeDocente,+cognomeDocente,+ruoloDocente,+paginaHtmlDocente,+emailDocente,+luogoRicevimentoDocente,+oraRicevimentoDocente,+docenteInformatica,+docenteTtc&start=0&wt=javabin&version=2} hits=1 status=0 QTime=3
2016-12-16 12:09:06.673 INFO  (qtp606548741-13) [   ] o.a.s.s.HttpSolrCall [admin] webapp=null path=/admin/cores params={indexInfo=false&wt=json&_=1481890146467} status=0 QTime=0
2016-12-16 12:09:06.677 INFO  (qtp606548741-16) [   x:ProgettoIR-indice] o.a.s.c.S.Request [ProgettoIR-indice]  webapp=/solr path=/admin/luke params={numTerms=0&show=index&wt=json&_=1481890146654} status=0 QTime=0
2016-12-16 12:09:06.680 INFO  (qtp606548741-12) [   x:ProgettoIR-indice] o.a.s.c.S.Request [ProgettoIR-indice]  webapp=/solr path=/replication params={wt=json&command=details&_=1481890146655} status=0 QTime=2
2016-12-16 12:09:06.683 INFO  (qtp606548741-12) [   x:ProgettoIR-indice] o.a.s.c.S.Request [ProgettoIR-indice]  webapp=/solr path=/admin/ping params={action=status&wt=json&_=1481890146468&ts=1481890146468} status=503 QTime=0
2016-12-16 12:09:06.689 INFO  (qtp606548741-19) [   ] o.a.s.s.HttpSolrCall [admin] webapp=null path=/admin/info/system params={wt=json&_=1481890146468} status=0 QTime=14
2016-12-16 12:09:06.694 INFO  (qtp606548741-16) [   x:ProgettoIR-indice] o.a.s.c.S.Request [ProgettoIR-indice]  webapp=/solr path=/admin/system params={wt=json&_=1481890146654} status=0 QTime=12
2016-12-16 12:09:17.390 INFO  (qtp606548741-20) [   ] o.a.s.s.HttpSolrCall [admin] webapp=null path=/admin/cores params={indexInfo=false&wt=json&_=1481890157175} status=0 QTime=0
2016-12-16 12:09:17.395 INFO  (qtp606548741-12) [   x:ProgettoIR-indice] o.a.s.c.S.Request [ProgettoIR-indice]  webapp=/solr path=/admin/luke params={numTerms=0&show=index&wt=json&_=1481890157371} status=0 QTime=0
2016-12-16 12:09:17.399 INFO  (qtp606548741-21) [   x:ProgettoIR-indice] o.a.s.c.S.Request [ProgettoIR-indice]  webapp=/solr path=/replication params={wt=json&command=details&_=1481890157372} status=0 QTime=2
2016-12-16 12:09:17.402 INFO  (qtp606548741-15) [   x:ProgettoIR-indice] o.a.s.c.S.Request [ProgettoIR-indice]  webapp=/solr path=/admin/ping params={action=status&wt=json&_=1481890157178&ts=1481890157178} status=503 QTime=0
2016-12-16 12:09:17.407 INFO  (qtp606548741-13) [   ] o.a.s.s.HttpSolrCall [admin] webapp=null path=/admin/info/system params={wt=json&_=1481890157177} status=0 QTime=15
2016-12-16 12:09:17.410 INFO  (qtp606548741-12) [   x:ProgettoIR-indice] o.a.s.c.S.Request [ProgettoIR-indice]  webapp=/solr path=/admin/system params={wt=json&_=1481890157372} status=0 QTime=11
2016-12-16 12:09:34.762 INFO  (ShutdownMonitor) [   ] o.e.j.s.ServerConnector Stopped ServerConnector@69cb74fa{HTTP/1.1,[http/1.1]}{0.0.0.0:8983}
2016-12-16 12:09:34.762 INFO  (ShutdownMonitor) [   ] o.a.s.c.CoreContainer Shutting down CoreContainer instance=226744878
2016-12-16 12:09:34.764 INFO  (coreCloseExecutor-11-thread-1) [   x:ProgettoIR-indice] o.a.s.c.SolrCore [ProgettoIR-indice]  CLOSING SolrCore org.apache.solr.core.SolrCore@7a2c0ad9
2016-12-16 12:09:34.781 WARN  (ShutdownMonitor) [   ] o.e.j.s.ServletContextHandler ServletContextHandler.setHandler should not be called directly. Use insertHandler or setSessionHandler etc.
