2016-12-16 10:24:10.246 INFO  (main) [   ] o.e.j.s.Server jetty-9.3.8.v20160314
2016-12-16 10:24:10.598 INFO  (main) [   ] o.a.s.s.SolrDispatchFilter  ___      _       Welcome to Apache Solr™ version 6.3.0
2016-12-16 10:24:10.599 INFO  (main) [   ] o.a.s.s.SolrDispatchFilter / __| ___| |_ _   Starting in standalone mode on port 8983
2016-12-16 10:24:10.599 INFO  (main) [   ] o.a.s.s.SolrDispatchFilter \__ \/ _ \ | '_|  Install dir: /home/TheEdoardo93/git/SearchEngineForTheUnimibDiscoWebsite/solr-6.3.0
2016-12-16 10:24:10.675 INFO  (main) [   ] o.a.s.s.SolrDispatchFilter |___/\___/_|_|    Start time: 2016-12-16T10:24:10.600Z
2016-12-16 10:24:10.676 INFO  (main) [   ] o.a.s.s.StartupLoggingUtils Property solr.log.muteconsole given. Muting ConsoleAppender named CONSOLE
2016-12-16 10:24:10.697 INFO  (main) [   ] o.a.s.c.SolrResourceLoader Using system property solr.solr.home: /home/TheEdoardo93/git/SearchEngineForTheUnimibDiscoWebsite/solr-6.3.0/server/solr
2016-12-16 10:24:10.704 INFO  (main) [   ] o.a.s.c.SolrXmlConfig Loading container configuration from /home/TheEdoardo93/git/SearchEngineForTheUnimibDiscoWebsite/solr-6.3.0/server/solr/solr.xml
2016-12-16 10:24:11.014 INFO  (main) [   ] o.a.s.u.UpdateShardHandler Creating UpdateShardHandler HTTP client with params: socketTimeout=600000&connTimeout=60000&retry=true
2016-12-16 10:24:11.074 INFO  (main) [   ] o.a.s.c.CorePropertiesLocator Found 1 core definitions underneath /home/TheEdoardo93/git/SearchEngineForTheUnimibDiscoWebsite/solr-6.3.0/server/solr
2016-12-16 10:24:11.082 INFO  (main) [   ] o.a.s.c.CorePropertiesLocator Cores are: [ProgettoIR-indice]
2016-12-16 10:24:11.129 INFO  (main) [   ] o.e.j.s.ServerConnector Started ServerConnector@5fbf5846{HTTP/1.1,[http/1.1]}{0.0.0.0:8983}
2016-12-16 10:24:11.129 INFO  (main) [   ] o.e.j.s.Server Started @1501ms
2016-12-16 10:24:11.145 INFO  (coreLoadExecutor-6-thread-1) [   ] o.a.s.c.SolrConfig Using Lucene MatchVersion: 4.5.0
2016-12-16 10:24:11.246 INFO  (coreLoadExecutor-6-thread-1) [   ] o.a.s.s.IndexSchema [ProgettoIR-indice] Schema name=ProgettoIR-indice
2016-12-16 10:24:11.282 WARN  (coreLoadExecutor-6-thread-1) [   ] o.a.s.s.FieldTypePluginLoader TokenizerFactory is using deprecated 4.5.0 emulation. You should at some point declare and reindex to at least 6.0, because 5.x emulation is deprecated and will be removed in 7.0
2016-12-16 10:24:11.290 WARN  (coreLoadExecutor-6-thread-1) [   ] o.a.s.s.FieldTypePluginLoader TokenFilterFactory is using deprecated 4.5.0 emulation. You should at some point declare and reindex to at least 6.0, because 5.x emulation is deprecated and will be removed in 7.0
2016-12-16 10:24:11.315 WARN  (coreLoadExecutor-6-thread-1) [   ] o.a.s.s.FieldTypePluginLoader TokenizerFactory is using deprecated 4.5.0 emulation. You should at some point declare and reindex to at least 6.0, because 5.x emulation is deprecated and will be removed in 7.0
2016-12-16 10:24:11.316 WARN  (coreLoadExecutor-6-thread-1) [   ] o.a.s.s.FieldTypePluginLoader TokenFilterFactory is using deprecated 4.5.0 emulation. You should at some point declare and reindex to at least 6.0, because 5.x emulation is deprecated and will be removed in 7.0
2016-12-16 10:24:11.319 WARN  (coreLoadExecutor-6-thread-1) [   ] o.a.s.s.FieldTypePluginLoader CharFilterFactory is using deprecated 4.5.0 emulation. You should at some point declare and reindex to at least 6.0, because 5.x emulation is deprecated and will be removed in 7.0
2016-12-16 10:24:11.336 WARN  (coreLoadExecutor-6-thread-1) [   ] o.a.s.s.FieldTypePluginLoader TokenizerFactory is using deprecated 4.5.0 emulation. You should at some point declare and reindex to at least 6.0, because 5.x emulation is deprecated and will be removed in 7.0
2016-12-16 10:24:11.336 WARN  (coreLoadExecutor-6-thread-1) [   ] o.a.s.s.FieldTypePluginLoader TokenFilterFactory is using deprecated 4.5.0 emulation. You should at some point declare and reindex to at least 6.0, because 5.x emulation is deprecated and will be removed in 7.0
2016-12-16 10:24:11.338 WARN  (coreLoadExecutor-6-thread-1) [   ] o.a.s.s.FieldTypePluginLoader TokenFilterFactory is using deprecated 4.5.0 emulation. You should at some point declare and reindex to at least 6.0, because 5.x emulation is deprecated and will be removed in 7.0
2016-12-16 10:24:11.339 WARN  (coreLoadExecutor-6-thread-1) [   ] o.a.s.s.FieldTypePluginLoader TokenFilterFactory is using deprecated 4.5.0 emulation. You should at some point declare and reindex to at least 6.0, because 5.x emulation is deprecated and will be removed in 7.0
2016-12-16 10:24:11.340 WARN  (coreLoadExecutor-6-thread-1) [   ] o.a.s.s.FieldTypePluginLoader TokenFilterFactory is using deprecated 4.5.0 emulation. You should at some point declare and reindex to at least 6.0, because 5.x emulation is deprecated and will be removed in 7.0
2016-12-16 10:24:11.340 WARN  (coreLoadExecutor-6-thread-1) [   ] o.a.s.s.FieldTypePluginLoader TokenFilterFactory is using deprecated 4.5.0 emulation. You should at some point declare and reindex to at least 6.0, because 5.x emulation is deprecated and will be removed in 7.0
2016-12-16 10:24:11.341 WARN  (coreLoadExecutor-6-thread-1) [   ] o.a.s.s.FieldTypePluginLoader TokenFilterFactory is using deprecated 4.5.0 emulation. You should at some point declare and reindex to at least 6.0, because 5.x emulation is deprecated and will be removed in 7.0
2016-12-16 10:24:11.342 WARN  (coreLoadExecutor-6-thread-1) [   ] o.a.s.s.FieldTypePluginLoader TokenFilterFactory is using deprecated 4.5.0 emulation. You should at some point declare and reindex to at least 6.0, because 5.x emulation is deprecated and will be removed in 7.0
2016-12-16 10:24:11.344 WARN  (coreLoadExecutor-6-thread-1) [   ] o.a.s.s.FieldTypePluginLoader CharFilterFactory is using deprecated 4.5.0 emulation. You should at some point declare and reindex to at least 6.0, because 5.x emulation is deprecated and will be removed in 7.0
2016-12-16 10:24:11.345 WARN  (coreLoadExecutor-6-thread-1) [   ] o.a.s.s.FieldTypePluginLoader TokenizerFactory is using deprecated 4.5.0 emulation. You should at some point declare and reindex to at least 6.0, because 5.x emulation is deprecated and will be removed in 7.0
2016-12-16 10:24:11.345 WARN  (coreLoadExecutor-6-thread-1) [   ] o.a.s.s.FieldTypePluginLoader TokenFilterFactory is using deprecated 4.5.0 emulation. You should at some point declare and reindex to at least 6.0, because 5.x emulation is deprecated and will be removed in 7.0
2016-12-16 10:24:11.345 WARN  (coreLoadExecutor-6-thread-1) [   ] o.a.s.s.FieldTypePluginLoader TokenFilterFactory is using deprecated 4.5.0 emulation. You should at some point declare and reindex to at least 6.0, because 5.x emulation is deprecated and will be removed in 7.0
2016-12-16 10:24:11.345 WARN  (coreLoadExecutor-6-thread-1) [   ] o.a.s.s.FieldTypePluginLoader TokenFilterFactory is using deprecated 4.5.0 emulation. You should at some point declare and reindex to at least 6.0, because 5.x emulation is deprecated and will be removed in 7.0
2016-12-16 10:24:11.345 WARN  (coreLoadExecutor-6-thread-1) [   ] o.a.s.s.FieldTypePluginLoader TokenFilterFactory is using deprecated 4.5.0 emulation. You should at some point declare and reindex to at least 6.0, because 5.x emulation is deprecated and will be removed in 7.0
2016-12-16 10:24:11.346 WARN  (coreLoadExecutor-6-thread-1) [   ] o.a.s.s.FieldTypePluginLoader TokenFilterFactory is using deprecated 4.5.0 emulation. You should at some point declare and reindex to at least 6.0, because 5.x emulation is deprecated and will be removed in 7.0
2016-12-16 10:24:11.346 WARN  (coreLoadExecutor-6-thread-1) [   ] o.a.s.s.FieldTypePluginLoader TokenFilterFactory is using deprecated 4.5.0 emulation. You should at some point declare and reindex to at least 6.0, because 5.x emulation is deprecated and will be removed in 7.0
2016-12-16 10:24:11.355 WARN  (coreLoadExecutor-6-thread-1) [   ] o.a.s.s.IndexSchema [ProgettoIR-indice] default search field in schema is paginaHtmlDocente. WARNING: Deprecated, please use 'df' on request instead.
2016-12-16 10:24:11.356 WARN  (coreLoadExecutor-6-thread-1) [   ] o.a.s.s.IndexSchema [ProgettoIR-indice] query parser default operator is OR. WARNING: Deprecated, please use 'q.op' on request instead.
2016-12-16 10:24:11.359 INFO  (coreLoadExecutor-6-thread-1) [   ] o.a.s.s.IndexSchema Loaded schema ProgettoIR-indice/1.6 with uniqueid field id
2016-12-16 10:24:11.436 INFO  (coreLoadExecutor-6-thread-1) [   ] o.a.s.c.CoreContainer Creating SolrCore 'ProgettoIR-indice' using configuration from instancedir /home/TheEdoardo93/git/SearchEngineForTheUnimibDiscoWebsite/solr-6.3.0/server/solr/ProgettoIR/ProgettoIR-indice
2016-12-16 10:24:11.484 INFO  (coreLoadExecutor-6-thread-1) [   x:ProgettoIR-indice] o.a.s.c.SolrCore [[ProgettoIR-indice] ] Opening new SolrCore at [/home/TheEdoardo93/git/SearchEngineForTheUnimibDiscoWebsite/solr-6.3.0/server/solr/ProgettoIR/ProgettoIR-indice], dataDir=[/home/TheEdoardo93/git/SearchEngineForTheUnimibDiscoWebsite/solr-6.3.0/server/solr/ProgettoIR/ProgettoIR-indice/data/]
2016-12-16 10:24:11.813 INFO  (coreLoadExecutor-6-thread-1) [   x:ProgettoIR-indice] o.a.s.u.CommitTracker Hard AutoCommit: disabled
2016-12-16 10:24:11.813 INFO  (coreLoadExecutor-6-thread-1) [   x:ProgettoIR-indice] o.a.s.u.CommitTracker Soft AutoCommit: disabled
2016-12-16 10:24:11.897 INFO  (coreLoadExecutor-6-thread-1) [   x:ProgettoIR-indice] o.a.s.s.SolrIndexSearcher Opening [Searcher@1917e0d8[ProgettoIR-indice] main]
2016-12-16 10:24:11.906 INFO  (coreLoadExecutor-6-thread-1) [   x:ProgettoIR-indice] o.a.s.r.ManagedResourceStorage File-based storage initialized to use dir: /home/TheEdoardo93/git/SearchEngineForTheUnimibDiscoWebsite/solr-6.3.0/server/solr/ProgettoIR/ProgettoIR-indice/conf
2016-12-16 10:24:11.920 INFO  (coreLoadExecutor-6-thread-1) [   x:ProgettoIR-indice] o.a.s.h.ReplicationHandler Commits will be reserved for  10000
2016-12-16 10:24:11.934 INFO  (searcherExecutor-7-thread-1-processing-x:ProgettoIR-indice) [   x:ProgettoIR-indice] o.a.s.c.SolrCore [ProgettoIR-indice] Registered new searcher Searcher@1917e0d8[ProgettoIR-indice] main{ExitableDirectoryReader(UninvertingDirectoryReader(Uninverting(_5k(6.3.0):C1)))}
2016-12-16 10:24:17.738 INFO  (qtp606548741-21) [   x:ProgettoIR-indice] o.a.s.c.S.Request [ProgettoIR-indice]  webapp=/solr path=/admin/ping params={wt=javabin&version=2} hits=1 status=0 QTime=49
2016-12-16 10:24:17.739 INFO  (qtp606548741-21) [   x:ProgettoIR-indice] o.a.s.c.S.Request [ProgettoIR-indice]  webapp=/solr path=/admin/ping params={wt=javabin&version=2} status=0 QTime=50
2016-12-16 10:24:17.928 INFO  (qtp606548741-14) [   x:ProgettoIR-indice] o.a.s.u.DirectUpdateHandler2 [ProgettoIR-indice] REMOVING ALL DOCUMENTS FROM INDEX
2016-12-16 10:24:17.929 INFO  (qtp606548741-14) [   x:ProgettoIR-indice] o.a.s.u.p.LogUpdateProcessorFactory [ProgettoIR-indice]  webapp=/solr path=/update params={wt=javabin&version=2}{deleteByQuery=*:*} 0 82
2016-12-16 10:24:40.471 INFO  (qtp606548741-12) [   x:ProgettoIR-indice] o.a.s.c.S.Request [ProgettoIR-indice]  webapp=/solr path=/admin/ping params={wt=javabin&version=2} hits=1 status=0 QTime=0
2016-12-16 10:24:40.471 INFO  (qtp606548741-12) [   x:ProgettoIR-indice] o.a.s.c.S.Request [ProgettoIR-indice]  webapp=/solr path=/admin/ping params={wt=javabin&version=2} status=0 QTime=1
2016-12-16 10:24:40.525 INFO  (qtp606548741-21) [   x:ProgettoIR-indice] o.a.s.u.DirectUpdateHandler2 [ProgettoIR-indice] REMOVING ALL DOCUMENTS FROM INDEX
2016-12-16 10:24:40.526 INFO  (qtp606548741-21) [   x:ProgettoIR-indice] o.a.s.u.p.LogUpdateProcessorFactory [ProgettoIR-indice]  webapp=/solr path=/update params={wt=javabin&version=2}{deleteByQuery=*:*} 0 1
2016-12-16 10:28:11.410 INFO  (qtp606548741-15) [   x:ProgettoIR-indice] o.a.s.c.S.Request [ProgettoIR-indice]  webapp=/solr path=/admin/ping params={wt=javabin&version=2} hits=1 status=0 QTime=1
2016-12-16 10:28:11.411 INFO  (qtp606548741-15) [   x:ProgettoIR-indice] o.a.s.c.S.Request [ProgettoIR-indice]  webapp=/solr path=/admin/ping params={wt=javabin&version=2} status=0 QTime=1
2016-12-16 10:28:11.463 INFO  (qtp606548741-20) [   x:ProgettoIR-indice] o.a.s.u.DirectUpdateHandler2 [ProgettoIR-indice] REMOVING ALL DOCUMENTS FROM INDEX
2016-12-16 10:28:11.463 INFO  (qtp606548741-20) [   x:ProgettoIR-indice] o.a.s.u.p.LogUpdateProcessorFactory [ProgettoIR-indice]  webapp=/solr path=/update params={wt=javabin&version=2}{deleteByQuery=*:*} 0 0
2016-12-16 10:28:20.419 INFO  (qtp606548741-19) [   x:ProgettoIR-indice] o.a.s.c.S.Request [ProgettoIR-indice]  webapp=/solr path=/admin/ping params={wt=javabin&version=2} hits=1 status=0 QTime=0
2016-12-16 10:28:20.419 INFO  (qtp606548741-19) [   x:ProgettoIR-indice] o.a.s.c.S.Request [ProgettoIR-indice]  webapp=/solr path=/admin/ping params={wt=javabin&version=2} status=0 QTime=1
2016-12-16 10:28:20.481 INFO  (qtp606548741-14) [   x:ProgettoIR-indice] o.a.s.u.DirectUpdateHandler2 [ProgettoIR-indice] REMOVING ALL DOCUMENTS FROM INDEX
2016-12-16 10:28:20.481 INFO  (qtp606548741-14) [   x:ProgettoIR-indice] o.a.s.u.p.LogUpdateProcessorFactory [ProgettoIR-indice]  webapp=/solr path=/update params={wt=javabin&version=2}{deleteByQuery=*:*} 0 0
2016-12-16 10:28:33.375 INFO  (qtp606548741-13) [   x:ProgettoIR-indice] o.a.s.c.S.Request [ProgettoIR-indice]  webapp=/solr path=/admin/ping params={wt=javabin&version=2} hits=1 status=0 QTime=0
2016-12-16 10:28:33.375 INFO  (qtp606548741-13) [   x:ProgettoIR-indice] o.a.s.c.S.Request [ProgettoIR-indice]  webapp=/solr path=/admin/ping params={wt=javabin&version=2} status=0 QTime=1
2016-12-16 10:28:33.426 INFO  (qtp606548741-19) [   x:ProgettoIR-indice] o.a.s.u.DirectUpdateHandler2 [ProgettoIR-indice] REMOVING ALL DOCUMENTS FROM INDEX
2016-12-16 10:28:33.426 INFO  (qtp606548741-19) [   x:ProgettoIR-indice] o.a.s.u.p.LogUpdateProcessorFactory [ProgettoIR-indice]  webapp=/solr path=/update params={wt=javabin&version=2}{deleteByQuery=*:*} 0 0
2016-12-16 10:28:41.338 INFO  (qtp606548741-18) [   x:ProgettoIR-indice] o.a.s.c.S.Request [ProgettoIR-indice]  webapp=/solr path=/admin/ping params={wt=javabin&version=2} hits=1 status=0 QTime=0
2016-12-16 10:28:41.338 INFO  (qtp606548741-18) [   x:ProgettoIR-indice] o.a.s.c.S.Request [ProgettoIR-indice]  webapp=/solr path=/admin/ping params={wt=javabin&version=2} status=0 QTime=1
2016-12-16 10:28:41.389 INFO  (qtp606548741-12) [   x:ProgettoIR-indice] o.a.s.u.DirectUpdateHandler2 [ProgettoIR-indice] REMOVING ALL DOCUMENTS FROM INDEX
2016-12-16 10:28:41.389 INFO  (qtp606548741-12) [   x:ProgettoIR-indice] o.a.s.u.p.LogUpdateProcessorFactory [ProgettoIR-indice]  webapp=/solr path=/update params={wt=javabin&version=2}{deleteByQuery=*:*} 0 0
2016-12-16 10:28:47.405 INFO  (qtp606548741-14) [   x:ProgettoIR-indice] o.a.s.c.S.Request [ProgettoIR-indice]  webapp=/solr path=/admin/ping params={wt=javabin&version=2} hits=1 status=0 QTime=0
2016-12-16 10:28:47.405 INFO  (qtp606548741-14) [   x:ProgettoIR-indice] o.a.s.c.S.Request [ProgettoIR-indice]  webapp=/solr path=/admin/ping params={wt=javabin&version=2} status=0 QTime=1
2016-12-16 10:28:47.459 INFO  (qtp606548741-16) [   x:ProgettoIR-indice] o.a.s.u.DirectUpdateHandler2 [ProgettoIR-indice] REMOVING ALL DOCUMENTS FROM INDEX
2016-12-16 10:28:47.459 INFO  (qtp606548741-16) [   x:ProgettoIR-indice] o.a.s.u.p.LogUpdateProcessorFactory [ProgettoIR-indice]  webapp=/solr path=/update params={wt=javabin&version=2}{deleteByQuery=*:*} 0 0
2016-12-16 10:29:48.339 INFO  (qtp606548741-12) [   x:ProgettoIR-indice] o.a.s.c.S.Request [ProgettoIR-indice]  webapp=/solr path=/admin/ping params={wt=javabin&version=2} hits=1 status=0 QTime=1
2016-12-16 10:29:48.340 INFO  (qtp606548741-12) [   x:ProgettoIR-indice] o.a.s.c.S.Request [ProgettoIR-indice]  webapp=/solr path=/admin/ping params={wt=javabin&version=2} status=0 QTime=1
2016-12-16 10:29:48.399 INFO  (qtp606548741-19) [   x:ProgettoIR-indice] o.a.s.u.DirectUpdateHandler2 [ProgettoIR-indice] REMOVING ALL DOCUMENTS FROM INDEX
2016-12-16 10:29:48.399 INFO  (qtp606548741-19) [   x:ProgettoIR-indice] o.a.s.u.p.LogUpdateProcessorFactory [ProgettoIR-indice]  webapp=/solr path=/update params={wt=javabin&version=2}{deleteByQuery=*:*} 0 0
2016-12-16 10:30:00.020 INFO  (qtp606548741-16) [   x:ProgettoIR-indice] o.a.s.c.S.Request [ProgettoIR-indice]  webapp=/solr path=/admin/ping params={wt=javabin&version=2} hits=1 status=0 QTime=0
2016-12-16 10:30:00.021 INFO  (qtp606548741-16) [   x:ProgettoIR-indice] o.a.s.c.S.Request [ProgettoIR-indice]  webapp=/solr path=/admin/ping params={wt=javabin&version=2} status=0 QTime=1
2016-12-16 10:30:00.079 INFO  (qtp606548741-18) [   x:ProgettoIR-indice] o.a.s.u.DirectUpdateHandler2 [ProgettoIR-indice] REMOVING ALL DOCUMENTS FROM INDEX
2016-12-16 10:30:00.080 INFO  (qtp606548741-18) [   x:ProgettoIR-indice] o.a.s.u.p.LogUpdateProcessorFactory [ProgettoIR-indice]  webapp=/solr path=/update params={wt=javabin&version=2}{deleteByQuery=*:*} 0 0
2016-12-16 10:30:50.419 INFO  (qtp606548741-15) [   x:ProgettoIR-indice] o.a.s.c.S.Request [ProgettoIR-indice]  webapp=/solr path=/admin/ping params={wt=javabin&version=2} hits=1 status=0 QTime=0
2016-12-16 10:30:50.419 INFO  (qtp606548741-15) [   x:ProgettoIR-indice] o.a.s.c.S.Request [ProgettoIR-indice]  webapp=/solr path=/admin/ping params={wt=javabin&version=2} status=0 QTime=1
2016-12-16 10:30:50.479 INFO  (qtp606548741-21) [   x:ProgettoIR-indice] o.a.s.u.DirectUpdateHandler2 [ProgettoIR-indice] REMOVING ALL DOCUMENTS FROM INDEX
2016-12-16 10:30:50.479 INFO  (qtp606548741-21) [   x:ProgettoIR-indice] o.a.s.u.p.LogUpdateProcessorFactory [ProgettoIR-indice]  webapp=/solr path=/update params={wt=javabin&version=2}{deleteByQuery=*:*} 0 1
2016-12-16 10:31:24.291 INFO  (qtp606548741-13) [   x:ProgettoIR-indice] o.a.s.c.S.Request [ProgettoIR-indice]  webapp=/solr path=/admin/ping params={wt=javabin&version=2} hits=1 status=0 QTime=0
2016-12-16 10:31:24.291 INFO  (qtp606548741-13) [   x:ProgettoIR-indice] o.a.s.c.S.Request [ProgettoIR-indice]  webapp=/solr path=/admin/ping params={wt=javabin&version=2} status=0 QTime=1
2016-12-16 10:31:24.343 INFO  (qtp606548741-19) [   x:ProgettoIR-indice] o.a.s.u.DirectUpdateHandler2 [ProgettoIR-indice] REMOVING ALL DOCUMENTS FROM INDEX
2016-12-16 10:31:24.343 INFO  (qtp606548741-19) [   x:ProgettoIR-indice] o.a.s.u.p.LogUpdateProcessorFactory [ProgettoIR-indice]  webapp=/solr path=/update params={wt=javabin&version=2}{deleteByQuery=*:*} 0 0
2016-12-16 10:31:35.341 INFO  (qtp606548741-18) [   x:ProgettoIR-indice] o.a.s.c.S.Request [ProgettoIR-indice]  webapp=/solr path=/admin/ping params={wt=javabin&version=2} hits=1 status=0 QTime=0
2016-12-16 10:31:35.341 INFO  (qtp606548741-18) [   x:ProgettoIR-indice] o.a.s.c.S.Request [ProgettoIR-indice]  webapp=/solr path=/admin/ping params={wt=javabin&version=2} status=0 QTime=0
2016-12-16 10:31:35.393 INFO  (qtp606548741-20) [   x:ProgettoIR-indice] o.a.s.u.DirectUpdateHandler2 [ProgettoIR-indice] REMOVING ALL DOCUMENTS FROM INDEX
2016-12-16 10:31:35.394 INFO  (qtp606548741-20) [   x:ProgettoIR-indice] o.a.s.u.p.LogUpdateProcessorFactory [ProgettoIR-indice]  webapp=/solr path=/update params={wt=javabin&version=2}{deleteByQuery=*:*} 0 0
2016-12-16 10:31:44.160 INFO  (qtp606548741-21) [   x:ProgettoIR-indice] o.a.s.c.S.Request [ProgettoIR-indice]  webapp=/solr path=/admin/ping params={wt=javabin&version=2} hits=1 status=0 QTime=0
2016-12-16 10:31:44.160 INFO  (qtp606548741-21) [   x:ProgettoIR-indice] o.a.s.c.S.Request [ProgettoIR-indice]  webapp=/solr path=/admin/ping params={wt=javabin&version=2} status=0 QTime=0
2016-12-16 10:31:44.213 INFO  (qtp606548741-14) [   x:ProgettoIR-indice] o.a.s.u.DirectUpdateHandler2 [ProgettoIR-indice] REMOVING ALL DOCUMENTS FROM INDEX
2016-12-16 10:31:44.213 INFO  (qtp606548741-14) [   x:ProgettoIR-indice] o.a.s.u.p.LogUpdateProcessorFactory [ProgettoIR-indice]  webapp=/solr path=/update params={wt=javabin&version=2}{deleteByQuery=*:*} 0 0
2016-12-16 10:31:47.538 INFO  (qtp606548741-15) [   x:ProgettoIR-indice] o.a.s.c.S.Request [ProgettoIR-indice]  webapp=/solr path=/admin/ping params={wt=javabin&version=2} hits=1 status=0 QTime=0
2016-12-16 10:31:47.538 INFO  (qtp606548741-15) [   x:ProgettoIR-indice] o.a.s.c.S.Request [ProgettoIR-indice]  webapp=/solr path=/admin/ping params={wt=javabin&version=2} status=0 QTime=0
2016-12-16 10:31:47.591 INFO  (qtp606548741-21) [   x:ProgettoIR-indice] o.a.s.u.DirectUpdateHandler2 [ProgettoIR-indice] REMOVING ALL DOCUMENTS FROM INDEX
2016-12-16 10:31:47.591 INFO  (qtp606548741-21) [   x:ProgettoIR-indice] o.a.s.u.p.LogUpdateProcessorFactory [ProgettoIR-indice]  webapp=/solr path=/update params={wt=javabin&version=2}{deleteByQuery=*:*} 0 0
2016-12-16 10:32:23.071 INFO  (qtp606548741-12) [   x:ProgettoIR-indice] o.a.s.c.S.Request [ProgettoIR-indice]  webapp=/solr path=/admin/ping params={wt=javabin&version=2} hits=1 status=0 QTime=0
2016-12-16 10:32:23.072 INFO  (qtp606548741-12) [   x:ProgettoIR-indice] o.a.s.c.S.Request [ProgettoIR-indice]  webapp=/solr path=/admin/ping params={wt=javabin&version=2} status=0 QTime=1
2016-12-16 10:32:23.123 INFO  (qtp606548741-13) [   x:ProgettoIR-indice] o.a.s.u.DirectUpdateHandler2 [ProgettoIR-indice] REMOVING ALL DOCUMENTS FROM INDEX
2016-12-16 10:32:23.123 INFO  (qtp606548741-13) [   x:ProgettoIR-indice] o.a.s.u.p.LogUpdateProcessorFactory [ProgettoIR-indice]  webapp=/solr path=/update params={wt=javabin&version=2}{deleteByQuery=*:*} 0 0
2016-12-16 10:33:11.640 INFO  (qtp606548741-16) [   x:ProgettoIR-indice] o.a.s.c.S.Request [ProgettoIR-indice]  webapp=/solr path=/admin/ping params={wt=javabin&version=2} hits=1 status=0 QTime=0
2016-12-16 10:33:11.640 INFO  (qtp606548741-16) [   x:ProgettoIR-indice] o.a.s.c.S.Request [ProgettoIR-indice]  webapp=/solr path=/admin/ping params={wt=javabin&version=2} status=0 QTime=1
2016-12-16 10:33:11.697 INFO  (qtp606548741-14) [   x:ProgettoIR-indice] o.a.s.u.DirectUpdateHandler2 [ProgettoIR-indice] REMOVING ALL DOCUMENTS FROM INDEX
2016-12-16 10:33:11.698 INFO  (qtp606548741-14) [   x:ProgettoIR-indice] o.a.s.u.p.LogUpdateProcessorFactory [ProgettoIR-indice]  webapp=/solr path=/update params={wt=javabin&version=2}{deleteByQuery=*:*} 0 1
2016-12-16 10:35:13.495 INFO  (qtp606548741-18) [   x:ProgettoIR-indice] o.a.s.c.S.Request [ProgettoIR-indice]  webapp=/solr path=/admin/ping params={wt=javabin&version=2} hits=1 status=0 QTime=0
2016-12-16 10:35:13.495 INFO  (qtp606548741-18) [   x:ProgettoIR-indice] o.a.s.c.S.Request [ProgettoIR-indice]  webapp=/solr path=/admin/ping params={wt=javabin&version=2} status=0 QTime=0
2016-12-16 10:35:13.550 INFO  (qtp606548741-16) [   x:ProgettoIR-indice] o.a.s.u.DirectUpdateHandler2 [ProgettoIR-indice] REMOVING ALL DOCUMENTS FROM INDEX
2016-12-16 10:35:13.551 INFO  (qtp606548741-16) [   x:ProgettoIR-indice] o.a.s.u.p.LogUpdateProcessorFactory [ProgettoIR-indice]  webapp=/solr path=/update params={wt=javabin&version=2}{deleteByQuery=*:*} 0 1
2016-12-16 10:35:15.108 INFO  (qtp606548741-19) [   x:ProgettoIR-indice] o.a.s.c.S.Request [ProgettoIR-indice]  webapp=/solr path=/admin/ping params={wt=javabin&version=2} hits=1 status=0 QTime=0
2016-12-16 10:35:15.109 INFO  (qtp606548741-19) [   x:ProgettoIR-indice] o.a.s.c.S.Request [ProgettoIR-indice]  webapp=/solr path=/admin/ping params={wt=javabin&version=2} status=0 QTime=0
2016-12-16 10:35:15.162 INFO  (qtp606548741-19) [   x:ProgettoIR-indice] o.a.s.u.DirectUpdateHandler2 [ProgettoIR-indice] REMOVING ALL DOCUMENTS FROM INDEX
2016-12-16 10:35:15.163 INFO  (qtp606548741-19) [   x:ProgettoIR-indice] o.a.s.u.p.LogUpdateProcessorFactory [ProgettoIR-indice]  webapp=/solr path=/update params={wt=javabin&version=2}{deleteByQuery=*:*} 0 0
2016-12-16 10:35:17.325 INFO  (qtp606548741-20) [   x:ProgettoIR-indice] o.a.s.c.S.Request [ProgettoIR-indice]  webapp=/solr path=/admin/ping params={wt=javabin&version=2} hits=1 status=0 QTime=0
2016-12-16 10:35:17.325 INFO  (qtp606548741-20) [   x:ProgettoIR-indice] o.a.s.c.S.Request [ProgettoIR-indice]  webapp=/solr path=/admin/ping params={wt=javabin&version=2} status=0 QTime=0
2016-12-16 10:35:17.380 INFO  (qtp606548741-14) [   x:ProgettoIR-indice] o.a.s.u.DirectUpdateHandler2 [ProgettoIR-indice] REMOVING ALL DOCUMENTS FROM INDEX
2016-12-16 10:35:17.380 INFO  (qtp606548741-14) [   x:ProgettoIR-indice] o.a.s.u.p.LogUpdateProcessorFactory [ProgettoIR-indice]  webapp=/solr path=/update params={wt=javabin&version=2}{deleteByQuery=*:*} 0 0
2016-12-16 10:35:28.486 INFO  (qtp606548741-18) [   ] o.a.s.s.HttpSolrCall [admin] webapp=null path=/admin/cores params={indexInfo=false&wt=json&_=1481884528247} status=0 QTime=1
2016-12-16 10:35:28.553 INFO  (qtp606548741-20) [   ] o.a.s.s.HttpSolrCall [admin] webapp=null path=/admin/info/system params={wt=json&_=1481884528249} status=0 QTime=62
2016-12-16 10:35:28.554 INFO  (qtp606548741-13) [   ] o.a.s.s.HttpSolrCall [admin] webapp=null path=/admin/info/system params={wt=json&_=1481884528249} status=0 QTime=63
2016-12-16 10:35:31.697 INFO  (qtp606548741-12) [   ] o.a.s.s.HttpSolrCall [admin] webapp=null path=/admin/cores params={indexInfo=false&wt=json&_=1481884528247} status=0 QTime=0
2016-12-16 10:35:31.717 INFO  (qtp606548741-12) [   x:ProgettoIR-indice] o.a.s.c.S.Request [ProgettoIR-indice]  webapp=/solr path=/admin/luke params={numTerms=0&show=index&wt=json&_=1481884531678} status=0 QTime=1
2016-12-16 10:35:31.719 INFO  (qtp606548741-14) [   x:ProgettoIR-indice] o.a.s.c.S.Request [ProgettoIR-indice]  webapp=/solr path=/replication params={wt=json&command=details&_=1481884531679} status=0 QTime=3
2016-12-16 10:35:31.726 INFO  (qtp606548741-15) [   ] o.a.s.s.HttpSolrCall [admin] webapp=null path=/admin/info/system params={wt=json&_=1481884528249} status=0 QTime=27
2016-12-16 10:35:31.730 INFO  (qtp606548741-12) [   x:ProgettoIR-indice] o.a.s.c.S.Request [ProgettoIR-indice]  webapp=/solr path=/admin/ping params={action=status&wt=json&_=1481884528250&ts=1481884528250} status=503 QTime=1
2016-12-16 10:35:31.739 INFO  (qtp606548741-21) [   x:ProgettoIR-indice] o.a.s.c.S.Request [ProgettoIR-indice]  webapp=/solr path=/admin/system params={wt=json&_=1481884531679} status=0 QTime=10
2016-12-16 10:35:33.994 INFO  (qtp606548741-21) [   ] o.a.s.s.HttpSolrCall [admin] webapp=null path=/admin/cores params={indexInfo=false&wt=json&_=1481884533790} status=0 QTime=0
2016-12-16 10:35:34.005 INFO  (qtp606548741-18) [   ] o.a.s.s.HttpSolrCall [admin] webapp=null path=/admin/info/system params={wt=json&_=1481884533791} status=0 QTime=9
2016-12-16 10:35:34.011 INFO  (qtp606548741-15) [   x:ProgettoIR-indice] o.a.s.c.S.Request [ProgettoIR-indice]  webapp=/solr path=/admin/luke params={numTerms=0&show=index&wt=json&_=1481884533974} status=0 QTime=0
2016-12-16 10:35:34.011 INFO  (qtp606548741-19) [   x:ProgettoIR-indice] o.a.s.c.S.Request [ProgettoIR-indice]  webapp=/solr path=/admin/ping params={action=status&wt=json&_=1481884533792&ts=1481884533792} status=503 QTime=0
2016-12-16 10:35:34.013 INFO  (qtp606548741-19) [   x:ProgettoIR-indice] o.a.s.c.S.Request [ProgettoIR-indice]  webapp=/solr path=/replication params={wt=json&command=details&_=1481884533975} status=0 QTime=1
2016-12-16 10:35:34.020 INFO  (qtp606548741-20) [   x:ProgettoIR-indice] o.a.s.c.S.Request [ProgettoIR-indice]  webapp=/solr path=/admin/system params={wt=json&_=1481884533975} status=0 QTime=10
2016-12-16 10:35:49.628 INFO  (qtp606548741-16) [   x:ProgettoIR-indice] o.a.s.c.S.Request [ProgettoIR-indice]  webapp=/solr path=/admin/ping params={wt=javabin&version=2} hits=1 status=0 QTime=0
2016-12-16 10:35:49.628 INFO  (qtp606548741-16) [   x:ProgettoIR-indice] o.a.s.c.S.Request [ProgettoIR-indice]  webapp=/solr path=/admin/ping params={wt=javabin&version=2} status=0 QTime=0
2016-12-16 10:35:49.683 INFO  (qtp606548741-19) [   x:ProgettoIR-indice] o.a.s.u.DirectUpdateHandler2 [ProgettoIR-indice] REMOVING ALL DOCUMENTS FROM INDEX
2016-12-16 10:35:49.683 INFO  (qtp606548741-19) [   x:ProgettoIR-indice] o.a.s.u.p.LogUpdateProcessorFactory [ProgettoIR-indice]  webapp=/solr path=/update params={wt=javabin&version=2}{deleteByQuery=*:*} 0 0
2016-12-16 10:35:49.691 INFO  (qtp606548741-20) [   x:ProgettoIR-indice] o.a.s.u.DirectUpdateHandler2 start commit{,optimize=false,openSearcher=true,waitSearcher=true,expungeDeletes=false,softCommit=false,prepareCommit=false}
2016-12-16 10:35:49.691 INFO  (qtp606548741-20) [   x:ProgettoIR-indice] o.a.s.u.SolrIndexWriter Calling setCommitData with IW:org.apache.solr.update.SolrIndexWriter@65844302
2016-12-16 10:35:49.773 INFO  (qtp606548741-20) [   x:ProgettoIR-indice] o.a.s.s.SolrIndexSearcher Opening [Searcher@3deb6753[ProgettoIR-indice] main]
2016-12-16 10:35:49.775 INFO  (qtp606548741-20) [   x:ProgettoIR-indice] o.a.s.u.DirectUpdateHandler2 end_commit_flush
2016-12-16 10:35:49.775 INFO  (searcherExecutor-7-thread-1-processing-x:ProgettoIR-indice) [   x:ProgettoIR-indice] o.a.s.c.SolrCore [ProgettoIR-indice] Registered new searcher Searcher@3deb6753[ProgettoIR-indice] main{ExitableDirectoryReader(UninvertingDirectoryReader())}
2016-12-16 10:35:49.777 INFO  (qtp606548741-20) [   x:ProgettoIR-indice] o.a.s.u.p.LogUpdateProcessorFactory [ProgettoIR-indice]  webapp=/solr path=/update params={waitSearcher=true&commit=true&softCommit=false&wt=javabin&version=2}{commit=} 0 87
2016-12-16 10:35:53.517 INFO  (qtp606548741-16) [   ] o.a.s.s.HttpSolrCall [admin] webapp=null path=/admin/cores params={indexInfo=false&wt=json&_=1481884553304} status=0 QTime=0
2016-12-16 10:35:53.527 INFO  (qtp606548741-21) [   ] o.a.s.s.HttpSolrCall [admin] webapp=null path=/admin/info/system params={wt=json&_=1481884553306} status=0 QTime=8
2016-12-16 10:35:53.533 INFO  (qtp606548741-16) [   x:ProgettoIR-indice] o.a.s.c.S.Request [ProgettoIR-indice]  webapp=/solr path=/admin/luke params={numTerms=0&show=index&wt=json&_=1481884553499} status=0 QTime=0
2016-12-16 10:35:53.533 INFO  (qtp606548741-15) [   x:ProgettoIR-indice] o.a.s.c.S.Request [ProgettoIR-indice]  webapp=/solr path=/replication params={wt=json&command=details&_=1481884553499} status=0 QTime=0
2016-12-16 10:35:53.537 INFO  (qtp606548741-18) [   x:ProgettoIR-indice] o.a.s.c.S.Request [ProgettoIR-indice]  webapp=/solr path=/admin/ping params={action=status&wt=json&_=1481884553306&ts=1481884553306} status=503 QTime=0
2016-12-16 10:35:53.546 INFO  (qtp606548741-12) [   x:ProgettoIR-indice] o.a.s.c.S.Request [ProgettoIR-indice]  webapp=/solr path=/admin/system params={wt=json&_=1481884553499} status=0 QTime=11
2016-12-16 10:38:37.554 INFO  (qtp606548741-21) [   x:ProgettoIR-indice] o.a.s.c.S.Request [ProgettoIR-indice]  webapp=/solr path=/admin/ping params={wt=javabin&version=2} hits=0 status=0 QTime=0
2016-12-16 10:38:37.555 INFO  (qtp606548741-21) [   x:ProgettoIR-indice] o.a.s.c.S.Request [ProgettoIR-indice]  webapp=/solr path=/admin/ping params={wt=javabin&version=2} status=0 QTime=1
2016-12-16 10:38:37.623 INFO  (qtp606548741-21) [   x:ProgettoIR-indice] o.a.s.u.DirectUpdateHandler2 [ProgettoIR-indice] REMOVING ALL DOCUMENTS FROM INDEX
2016-12-16 10:38:37.623 INFO  (qtp606548741-21) [   x:ProgettoIR-indice] o.a.s.u.p.LogUpdateProcessorFactory [ProgettoIR-indice]  webapp=/solr path=/update params={wt=javabin&version=2}{deleteByQuery=*:*} 0 1
2016-12-16 10:38:37.630 INFO  (qtp606548741-20) [   x:ProgettoIR-indice] o.a.s.u.DirectUpdateHandler2 start commit{,optimize=false,openSearcher=true,waitSearcher=true,expungeDeletes=false,softCommit=false,prepareCommit=false}
2016-12-16 10:38:37.630 INFO  (qtp606548741-20) [   x:ProgettoIR-indice] o.a.s.u.SolrIndexWriter Calling setCommitData with IW:org.apache.solr.update.SolrIndexWriter@65844302
2016-12-16 10:38:37.742 INFO  (qtp606548741-20) [   x:ProgettoIR-indice] o.a.s.s.SolrIndexSearcher Opening [Searcher@571c4e7a[ProgettoIR-indice] main]
2016-12-16 10:38:37.742 INFO  (qtp606548741-20) [   x:ProgettoIR-indice] o.a.s.u.DirectUpdateHandler2 end_commit_flush
2016-12-16 10:38:37.743 INFO  (searcherExecutor-7-thread-1-processing-x:ProgettoIR-indice) [   x:ProgettoIR-indice] o.a.s.c.SolrCore [ProgettoIR-indice] Registered new searcher Searcher@571c4e7a[ProgettoIR-indice] main{ExitableDirectoryReader(UninvertingDirectoryReader())}
2016-12-16 10:38:37.743 INFO  (qtp606548741-20) [   x:ProgettoIR-indice] o.a.s.u.p.LogUpdateProcessorFactory [ProgettoIR-indice]  webapp=/solr path=/update params={waitSearcher=true&commit=true&softCommit=false&wt=javabin&version=2}{commit=} 0 113
2016-12-16 10:39:57.748 INFO  (qtp606548741-20) [   x:ProgettoIR-indice] o.a.s.c.S.Request [ProgettoIR-indice]  webapp=/solr path=/admin/ping params={wt=javabin&version=2} hits=0 status=0 QTime=0
2016-12-16 10:39:57.748 INFO  (qtp606548741-20) [   x:ProgettoIR-indice] o.a.s.c.S.Request [ProgettoIR-indice]  webapp=/solr path=/admin/ping params={wt=javabin&version=2} status=0 QTime=1
2016-12-16 10:39:57.799 INFO  (qtp606548741-15) [   x:ProgettoIR-indice] o.a.s.u.DirectUpdateHandler2 [ProgettoIR-indice] REMOVING ALL DOCUMENTS FROM INDEX
2016-12-16 10:39:57.799 INFO  (qtp606548741-15) [   x:ProgettoIR-indice] o.a.s.u.p.LogUpdateProcessorFactory [ProgettoIR-indice]  webapp=/solr path=/update params={wt=javabin&version=2}{deleteByQuery=*:*} 0 0
2016-12-16 10:39:57.805 INFO  (qtp606548741-18) [   x:ProgettoIR-indice] o.a.s.u.DirectUpdateHandler2 start commit{,optimize=false,openSearcher=true,waitSearcher=true,expungeDeletes=false,softCommit=false,prepareCommit=false}
2016-12-16 10:39:57.806 INFO  (qtp606548741-18) [   x:ProgettoIR-indice] o.a.s.u.SolrIndexWriter Calling setCommitData with IW:org.apache.solr.update.SolrIndexWriter@65844302
2016-12-16 10:39:57.875 INFO  (qtp606548741-18) [   x:ProgettoIR-indice] o.a.s.s.SolrIndexSearcher Opening [Searcher@4b71c79d[ProgettoIR-indice] main]
2016-12-16 10:39:57.876 INFO  (qtp606548741-18) [   x:ProgettoIR-indice] o.a.s.u.DirectUpdateHandler2 end_commit_flush
2016-12-16 10:39:57.876 INFO  (searcherExecutor-7-thread-1-processing-x:ProgettoIR-indice) [   x:ProgettoIR-indice] o.a.s.c.SolrCore [ProgettoIR-indice] Registered new searcher Searcher@4b71c79d[ProgettoIR-indice] main{ExitableDirectoryReader(UninvertingDirectoryReader())}
2016-12-16 10:39:57.876 INFO  (qtp606548741-18) [   x:ProgettoIR-indice] o.a.s.u.p.LogUpdateProcessorFactory [ProgettoIR-indice]  webapp=/solr path=/update params={waitSearcher=true&commit=true&softCommit=false&wt=javabin&version=2}{commit=} 0 70
2016-12-16 10:40:11.202 INFO  (qtp606548741-21) [   x:ProgettoIR-indice] o.a.s.c.S.Request [ProgettoIR-indice]  webapp=/solr path=/admin/ping params={wt=javabin&version=2} hits=0 status=0 QTime=0
2016-12-16 10:40:11.202 INFO  (qtp606548741-21) [   x:ProgettoIR-indice] o.a.s.c.S.Request [ProgettoIR-indice]  webapp=/solr path=/admin/ping params={wt=javabin&version=2} status=0 QTime=1
2016-12-16 10:40:11.251 INFO  (qtp606548741-16) [   x:ProgettoIR-indice] o.a.s.u.DirectUpdateHandler2 [ProgettoIR-indice] REMOVING ALL DOCUMENTS FROM INDEX
2016-12-16 10:40:11.251 INFO  (qtp606548741-16) [   x:ProgettoIR-indice] o.a.s.u.p.LogUpdateProcessorFactory [ProgettoIR-indice]  webapp=/solr path=/update params={wt=javabin&version=2}{deleteByQuery=*:*} 0 0
2016-12-16 10:40:11.258 INFO  (qtp606548741-19) [   x:ProgettoIR-indice] o.a.s.u.DirectUpdateHandler2 start commit{,optimize=false,openSearcher=true,waitSearcher=true,expungeDeletes=false,softCommit=false,prepareCommit=false}
2016-12-16 10:40:11.259 INFO  (qtp606548741-19) [   x:ProgettoIR-indice] o.a.s.u.SolrIndexWriter Calling setCommitData with IW:org.apache.solr.update.SolrIndexWriter@65844302
2016-12-16 10:40:11.335 INFO  (qtp606548741-19) [   x:ProgettoIR-indice] o.a.s.s.SolrIndexSearcher Opening [Searcher@6f15fa62[ProgettoIR-indice] main]
2016-12-16 10:40:11.336 INFO  (qtp606548741-19) [   x:ProgettoIR-indice] o.a.s.u.DirectUpdateHandler2 end_commit_flush
2016-12-16 10:40:11.336 INFO  (searcherExecutor-7-thread-1-processing-x:ProgettoIR-indice) [   x:ProgettoIR-indice] o.a.s.c.SolrCore [ProgettoIR-indice] Registered new searcher Searcher@6f15fa62[ProgettoIR-indice] main{ExitableDirectoryReader(UninvertingDirectoryReader())}
2016-12-16 10:40:11.336 INFO  (qtp606548741-19) [   x:ProgettoIR-indice] o.a.s.u.p.LogUpdateProcessorFactory [ProgettoIR-indice]  webapp=/solr path=/update params={waitSearcher=true&commit=true&softCommit=false&wt=javabin&version=2}{commit=} 0 78
2016-12-16 10:41:48.008 INFO  (qtp606548741-12) [   x:ProgettoIR-indice] o.a.s.c.S.Request [ProgettoIR-indice]  webapp=/solr path=/admin/ping params={wt=javabin&version=2} hits=0 status=0 QTime=0
2016-12-16 10:41:48.008 INFO  (qtp606548741-12) [   x:ProgettoIR-indice] o.a.s.c.S.Request [ProgettoIR-indice]  webapp=/solr path=/admin/ping params={wt=javabin&version=2} status=0 QTime=0
2016-12-16 10:41:48.061 INFO  (qtp606548741-21) [   x:ProgettoIR-indice] o.a.s.u.DirectUpdateHandler2 [ProgettoIR-indice] REMOVING ALL DOCUMENTS FROM INDEX
2016-12-16 10:41:48.062 INFO  (qtp606548741-21) [   x:ProgettoIR-indice] o.a.s.u.p.LogUpdateProcessorFactory [ProgettoIR-indice]  webapp=/solr path=/update params={wt=javabin&version=2}{deleteByQuery=*:*} 0 1
2016-12-16 10:41:48.068 INFO  (qtp606548741-16) [   x:ProgettoIR-indice] o.a.s.u.DirectUpdateHandler2 start commit{,optimize=false,openSearcher=true,waitSearcher=true,expungeDeletes=false,softCommit=false,prepareCommit=false}
2016-12-16 10:41:48.069 INFO  (qtp606548741-16) [   x:ProgettoIR-indice] o.a.s.u.SolrIndexWriter Calling setCommitData with IW:org.apache.solr.update.SolrIndexWriter@65844302
2016-12-16 10:41:48.134 INFO  (qtp606548741-16) [   x:ProgettoIR-indice] o.a.s.s.SolrIndexSearcher Opening [Searcher@6b7725c9[ProgettoIR-indice] main]
2016-12-16 10:41:48.135 INFO  (qtp606548741-16) [   x:ProgettoIR-indice] o.a.s.u.DirectUpdateHandler2 end_commit_flush
2016-12-16 10:41:48.135 INFO  (searcherExecutor-7-thread-1-processing-x:ProgettoIR-indice) [   x:ProgettoIR-indice] o.a.s.c.SolrCore [ProgettoIR-indice] Registered new searcher Searcher@6b7725c9[ProgettoIR-indice] main{ExitableDirectoryReader(UninvertingDirectoryReader())}
2016-12-16 10:41:48.135 INFO  (qtp606548741-16) [   x:ProgettoIR-indice] o.a.s.u.p.LogUpdateProcessorFactory [ProgettoIR-indice]  webapp=/solr path=/update params={waitSearcher=true&commit=true&softCommit=false&wt=javabin&version=2}{commit=} 0 66
2016-12-16 10:42:15.800 INFO  (qtp606548741-20) [   x:ProgettoIR-indice] o.a.s.c.S.Request [ProgettoIR-indice]  webapp=/solr path=/admin/ping params={wt=javabin&version=2} hits=0 status=0 QTime=0
2016-12-16 10:42:15.800 INFO  (qtp606548741-20) [   x:ProgettoIR-indice] o.a.s.c.S.Request [ProgettoIR-indice]  webapp=/solr path=/admin/ping params={wt=javabin&version=2} status=0 QTime=1
2016-12-16 10:42:15.857 INFO  (qtp606548741-13) [   x:ProgettoIR-indice] o.a.s.u.DirectUpdateHandler2 [ProgettoIR-indice] REMOVING ALL DOCUMENTS FROM INDEX
2016-12-16 10:42:15.857 INFO  (qtp606548741-13) [   x:ProgettoIR-indice] o.a.s.u.p.LogUpdateProcessorFactory [ProgettoIR-indice]  webapp=/solr path=/update params={wt=javabin&version=2}{deleteByQuery=*:*} 0 0
2016-12-16 10:42:15.865 INFO  (qtp606548741-12) [   x:ProgettoIR-indice] o.a.s.u.DirectUpdateHandler2 start commit{,optimize=false,openSearcher=true,waitSearcher=true,expungeDeletes=false,softCommit=false,prepareCommit=false}
2016-12-16 10:42:15.866 INFO  (qtp606548741-12) [   x:ProgettoIR-indice] o.a.s.u.SolrIndexWriter Calling setCommitData with IW:org.apache.solr.update.SolrIndexWriter@65844302
2016-12-16 10:42:15.962 INFO  (qtp606548741-12) [   x:ProgettoIR-indice] o.a.s.s.SolrIndexSearcher Opening [Searcher@6bf0d3bc[ProgettoIR-indice] main]
2016-12-16 10:42:15.962 INFO  (qtp606548741-12) [   x:ProgettoIR-indice] o.a.s.u.DirectUpdateHandler2 end_commit_flush
2016-12-16 10:42:15.963 INFO  (searcherExecutor-7-thread-1-processing-x:ProgettoIR-indice) [   x:ProgettoIR-indice] o.a.s.c.SolrCore [ProgettoIR-indice] Registered new searcher Searcher@6bf0d3bc[ProgettoIR-indice] main{ExitableDirectoryReader(UninvertingDirectoryReader())}
2016-12-16 10:42:15.964 INFO  (qtp606548741-12) [   x:ProgettoIR-indice] o.a.s.u.p.LogUpdateProcessorFactory [ProgettoIR-indice]  webapp=/solr path=/update params={waitSearcher=true&commit=true&softCommit=false&wt=javabin&version=2}{commit=} 0 98
2016-12-16 11:02:36.487 INFO  (ShutdownMonitor) [   ] o.e.j.s.ServerConnector Stopped ServerConnector@5fbf5846{HTTP/1.1,[http/1.1]}{0.0.0.0:8983}
2016-12-16 11:02:36.487 INFO  (ShutdownMonitor) [   ] o.a.s.c.CoreContainer Shutting down CoreContainer instance=226744878
2016-12-16 11:02:36.493 INFO  (coreCloseExecutor-11-thread-1) [   x:ProgettoIR-indice] o.a.s.c.SolrCore [ProgettoIR-indice]  CLOSING SolrCore org.apache.solr.core.SolrCore@b408236
2016-12-16 11:02:36.516 WARN  (ShutdownMonitor) [   ] o.e.j.s.ServletContextHandler ServletContextHandler.setHandler should not be called directly. Use insertHandler or setSessionHandler etc.
