2016-12-16 09:30:52.741 INFO  (main) [   ] o.e.j.s.Server jetty-9.3.8.v20160314
2016-12-16 09:30:53.101 INFO  (main) [   ] o.a.s.s.SolrDispatchFilter  ___      _       Welcome to Apache Solr™ version 6.3.0
2016-12-16 09:30:53.101 INFO  (main) [   ] o.a.s.s.SolrDispatchFilter / __| ___| |_ _   Starting in standalone mode on port 8983
2016-12-16 09:30:53.101 INFO  (main) [   ] o.a.s.s.SolrDispatchFilter \__ \/ _ \ | '_|  Install dir: /home/TheEdoardo93/git/SearchEngineForTheUnimibDiscoWebsite/solr-6.3.0
2016-12-16 09:30:53.185 INFO  (main) [   ] o.a.s.s.SolrDispatchFilter |___/\___/_|_|    Start time: 2016-12-16T09:30:53.103Z
2016-12-16 09:30:53.186 INFO  (main) [   ] o.a.s.s.StartupLoggingUtils Property solr.log.muteconsole given. Muting ConsoleAppender named CONSOLE
2016-12-16 09:30:53.212 INFO  (main) [   ] o.a.s.c.SolrResourceLoader Using system property solr.solr.home: /home/TheEdoardo93/git/SearchEngineForTheUnimibDiscoWebsite/solr-6.3.0/server/solr
2016-12-16 09:30:53.218 INFO  (main) [   ] o.a.s.c.SolrXmlConfig Loading container configuration from /home/TheEdoardo93/git/SearchEngineForTheUnimibDiscoWebsite/solr-6.3.0/server/solr/solr.xml
2016-12-16 09:30:53.529 INFO  (main) [   ] o.a.s.u.UpdateShardHandler Creating UpdateShardHandler HTTP client with params: socketTimeout=600000&connTimeout=60000&retry=true
2016-12-16 09:30:53.588 INFO  (main) [   ] o.a.s.c.CorePropertiesLocator Found 1 core definitions underneath /home/TheEdoardo93/git/SearchEngineForTheUnimibDiscoWebsite/solr-6.3.0/server/solr
2016-12-16 09:30:53.596 INFO  (main) [   ] o.a.s.c.CorePropertiesLocator Cores are: [ProgettoIR-indice]
2016-12-16 09:30:53.645 INFO  (main) [   ] o.e.j.s.ServerConnector Started ServerConnector@2362f559{HTTP/1.1,[http/1.1]}{0.0.0.0:8983}
2016-12-16 09:30:53.645 INFO  (main) [   ] o.e.j.s.Server Started @1524ms
2016-12-16 09:30:53.656 INFO  (coreLoadExecutor-6-thread-1) [   ] o.a.s.c.SolrConfig Using Lucene MatchVersion: 4.5.0
2016-12-16 09:30:53.759 INFO  (coreLoadExecutor-6-thread-1) [   ] o.a.s.s.IndexSchema [ProgettoIR-indice] Schema name=ProgettoIR-indice
2016-12-16 09:30:53.796 WARN  (coreLoadExecutor-6-thread-1) [   ] o.a.s.s.FieldTypePluginLoader TokenizerFactory is using deprecated 4.5.0 emulation. You should at some point declare and reindex to at least 6.0, because 5.x emulation is deprecated and will be removed in 7.0
2016-12-16 09:30:53.805 WARN  (coreLoadExecutor-6-thread-1) [   ] o.a.s.s.FieldTypePluginLoader TokenFilterFactory is using deprecated 4.5.0 emulation. You should at some point declare and reindex to at least 6.0, because 5.x emulation is deprecated and will be removed in 7.0
2016-12-16 09:30:53.828 WARN  (coreLoadExecutor-6-thread-1) [   ] o.a.s.s.FieldTypePluginLoader TokenizerFactory is using deprecated 4.5.0 emulation. You should at some point declare and reindex to at least 6.0, because 5.x emulation is deprecated and will be removed in 7.0
2016-12-16 09:30:53.829 WARN  (coreLoadExecutor-6-thread-1) [   ] o.a.s.s.FieldTypePluginLoader TokenFilterFactory is using deprecated 4.5.0 emulation. You should at some point declare and reindex to at least 6.0, because 5.x emulation is deprecated and will be removed in 7.0
2016-12-16 09:30:53.832 WARN  (coreLoadExecutor-6-thread-1) [   ] o.a.s.s.FieldTypePluginLoader CharFilterFactory is using deprecated 4.5.0 emulation. You should at some point declare and reindex to at least 6.0, because 5.x emulation is deprecated and will be removed in 7.0
2016-12-16 09:30:53.852 WARN  (coreLoadExecutor-6-thread-1) [   ] o.a.s.s.FieldTypePluginLoader TokenizerFactory is using deprecated 4.5.0 emulation. You should at some point declare and reindex to at least 6.0, because 5.x emulation is deprecated and will be removed in 7.0
2016-12-16 09:30:53.852 WARN  (coreLoadExecutor-6-thread-1) [   ] o.a.s.s.FieldTypePluginLoader TokenFilterFactory is using deprecated 4.5.0 emulation. You should at some point declare and reindex to at least 6.0, because 5.x emulation is deprecated and will be removed in 7.0
2016-12-16 09:30:53.854 WARN  (coreLoadExecutor-6-thread-1) [   ] o.a.s.s.FieldTypePluginLoader TokenFilterFactory is using deprecated 4.5.0 emulation. You should at some point declare and reindex to at least 6.0, because 5.x emulation is deprecated and will be removed in 7.0
2016-12-16 09:30:53.855 WARN  (coreLoadExecutor-6-thread-1) [   ] o.a.s.s.FieldTypePluginLoader TokenFilterFactory is using deprecated 4.5.0 emulation. You should at some point declare and reindex to at least 6.0, because 5.x emulation is deprecated and will be removed in 7.0
2016-12-16 09:30:53.857 WARN  (coreLoadExecutor-6-thread-1) [   ] o.a.s.s.FieldTypePluginLoader TokenFilterFactory is using deprecated 4.5.0 emulation. You should at some point declare and reindex to at least 6.0, because 5.x emulation is deprecated and will be removed in 7.0
2016-12-16 09:30:53.857 WARN  (coreLoadExecutor-6-thread-1) [   ] o.a.s.s.FieldTypePluginLoader TokenFilterFactory is using deprecated 4.5.0 emulation. You should at some point declare and reindex to at least 6.0, because 5.x emulation is deprecated and will be removed in 7.0
2016-12-16 09:30:53.858 WARN  (coreLoadExecutor-6-thread-1) [   ] o.a.s.s.FieldTypePluginLoader TokenFilterFactory is using deprecated 4.5.0 emulation. You should at some point declare and reindex to at least 6.0, because 5.x emulation is deprecated and will be removed in 7.0
2016-12-16 09:30:53.859 WARN  (coreLoadExecutor-6-thread-1) [   ] o.a.s.s.FieldTypePluginLoader TokenFilterFactory is using deprecated 4.5.0 emulation. You should at some point declare and reindex to at least 6.0, because 5.x emulation is deprecated and will be removed in 7.0
2016-12-16 09:30:53.862 WARN  (coreLoadExecutor-6-thread-1) [   ] o.a.s.s.FieldTypePluginLoader CharFilterFactory is using deprecated 4.5.0 emulation. You should at some point declare and reindex to at least 6.0, because 5.x emulation is deprecated and will be removed in 7.0
2016-12-16 09:30:53.863 WARN  (coreLoadExecutor-6-thread-1) [   ] o.a.s.s.FieldTypePluginLoader TokenizerFactory is using deprecated 4.5.0 emulation. You should at some point declare and reindex to at least 6.0, because 5.x emulation is deprecated and will be removed in 7.0
2016-12-16 09:30:53.863 WARN  (coreLoadExecutor-6-thread-1) [   ] o.a.s.s.FieldTypePluginLoader TokenFilterFactory is using deprecated 4.5.0 emulation. You should at some point declare and reindex to at least 6.0, because 5.x emulation is deprecated and will be removed in 7.0
2016-12-16 09:30:53.864 WARN  (coreLoadExecutor-6-thread-1) [   ] o.a.s.s.FieldTypePluginLoader TokenFilterFactory is using deprecated 4.5.0 emulation. You should at some point declare and reindex to at least 6.0, because 5.x emulation is deprecated and will be removed in 7.0
2016-12-16 09:30:53.864 WARN  (coreLoadExecutor-6-thread-1) [   ] o.a.s.s.FieldTypePluginLoader TokenFilterFactory is using deprecated 4.5.0 emulation. You should at some point declare and reindex to at least 6.0, because 5.x emulation is deprecated and will be removed in 7.0
2016-12-16 09:30:53.864 WARN  (coreLoadExecutor-6-thread-1) [   ] o.a.s.s.FieldTypePluginLoader TokenFilterFactory is using deprecated 4.5.0 emulation. You should at some point declare and reindex to at least 6.0, because 5.x emulation is deprecated and will be removed in 7.0
2016-12-16 09:30:53.865 WARN  (coreLoadExecutor-6-thread-1) [   ] o.a.s.s.FieldTypePluginLoader TokenFilterFactory is using deprecated 4.5.0 emulation. You should at some point declare and reindex to at least 6.0, because 5.x emulation is deprecated and will be removed in 7.0
2016-12-16 09:30:53.865 WARN  (coreLoadExecutor-6-thread-1) [   ] o.a.s.s.FieldTypePluginLoader TokenFilterFactory is using deprecated 4.5.0 emulation. You should at some point declare and reindex to at least 6.0, because 5.x emulation is deprecated and will be removed in 7.0
2016-12-16 09:30:53.874 WARN  (coreLoadExecutor-6-thread-1) [   ] o.a.s.s.IndexSchema [ProgettoIR-indice] default search field in schema is paginaHtmlDocente. WARNING: Deprecated, please use 'df' on request instead.
2016-12-16 09:30:53.875 WARN  (coreLoadExecutor-6-thread-1) [   ] o.a.s.s.IndexSchema [ProgettoIR-indice] query parser default operator is OR. WARNING: Deprecated, please use 'q.op' on request instead.
2016-12-16 09:30:53.878 INFO  (coreLoadExecutor-6-thread-1) [   ] o.a.s.s.IndexSchema Loaded schema ProgettoIR-indice/1.6 with uniqueid field id
2016-12-16 09:30:53.945 INFO  (coreLoadExecutor-6-thread-1) [   ] o.a.s.c.CoreContainer Creating SolrCore 'ProgettoIR-indice' using configuration from instancedir /home/TheEdoardo93/git/SearchEngineForTheUnimibDiscoWebsite/solr-6.3.0/server/solr/ProgettoIR/ProgettoIR-indice
2016-12-16 09:30:53.992 INFO  (coreLoadExecutor-6-thread-1) [   x:ProgettoIR-indice] o.a.s.c.SolrCore [[ProgettoIR-indice] ] Opening new SolrCore at [/home/TheEdoardo93/git/SearchEngineForTheUnimibDiscoWebsite/solr-6.3.0/server/solr/ProgettoIR/ProgettoIR-indice], dataDir=[/home/TheEdoardo93/git/SearchEngineForTheUnimibDiscoWebsite/solr-6.3.0/server/solr/ProgettoIR/ProgettoIR-indice/data/]
2016-12-16 09:30:54.333 INFO  (coreLoadExecutor-6-thread-1) [   x:ProgettoIR-indice] o.a.s.u.CommitTracker Hard AutoCommit: disabled
2016-12-16 09:30:54.333 INFO  (coreLoadExecutor-6-thread-1) [   x:ProgettoIR-indice] o.a.s.u.CommitTracker Soft AutoCommit: disabled
2016-12-16 09:30:54.413 INFO  (coreLoadExecutor-6-thread-1) [   x:ProgettoIR-indice] o.a.s.s.SolrIndexSearcher Opening [Searcher@6af2514a[ProgettoIR-indice] main]
2016-12-16 09:30:54.419 INFO  (coreLoadExecutor-6-thread-1) [   x:ProgettoIR-indice] o.a.s.r.ManagedResourceStorage File-based storage initialized to use dir: /home/TheEdoardo93/git/SearchEngineForTheUnimibDiscoWebsite/solr-6.3.0/server/solr/ProgettoIR/ProgettoIR-indice/conf
2016-12-16 09:30:54.433 INFO  (coreLoadExecutor-6-thread-1) [   x:ProgettoIR-indice] o.a.s.h.ReplicationHandler Commits will be reserved for  10000
2016-12-16 09:30:54.447 INFO  (searcherExecutor-7-thread-1-processing-x:ProgettoIR-indice) [   x:ProgettoIR-indice] o.a.s.c.SolrCore [ProgettoIR-indice] Registered new searcher Searcher@6af2514a[ProgettoIR-indice] main{ExitableDirectoryReader(UninvertingDirectoryReader(Uninverting(_5j(6.3.0):C1)))}
2016-12-16 09:30:58.502 INFO  (qtp606548741-18) [   x:ProgettoIR-indice] o.a.s.c.S.Request [ProgettoIR-indice]  webapp=/solr path=/admin/ping params={wt=javabin&version=2} hits=1 status=0 QTime=43
2016-12-16 09:30:58.502 INFO  (qtp606548741-18) [   x:ProgettoIR-indice] o.a.s.c.S.Request [ProgettoIR-indice]  webapp=/solr path=/admin/ping params={wt=javabin&version=2} status=0 QTime=44
2016-12-16 09:33:06.659 INFO  (qtp606548741-13) [   x:ProgettoIR-indice] o.a.s.c.S.Request [ProgettoIR-indice]  webapp=/solr path=/admin/ping params={wt=javabin&version=2} hits=1 status=0 QTime=0
2016-12-16 09:33:06.659 INFO  (qtp606548741-13) [   x:ProgettoIR-indice] o.a.s.c.S.Request [ProgettoIR-indice]  webapp=/solr path=/admin/ping params={wt=javabin&version=2} status=0 QTime=1
2016-12-16 09:34:01.296 INFO  (qtp606548741-14) [   x:ProgettoIR-indice] o.a.s.c.S.Request [ProgettoIR-indice]  webapp=/solr path=/admin/ping params={wt=javabin&version=2} hits=1 status=0 QTime=0
2016-12-16 09:34:01.296 INFO  (qtp606548741-14) [   x:ProgettoIR-indice] o.a.s.c.S.Request [ProgettoIR-indice]  webapp=/solr path=/admin/ping params={wt=javabin&version=2} status=0 QTime=1
2016-12-16 09:34:08.614 INFO  (qtp606548741-20) [   x:ProgettoIR-indice] o.a.s.c.S.Request [ProgettoIR-indice]  webapp=/solr path=/admin/ping params={wt=javabin&version=2} hits=1 status=0 QTime=0
2016-12-16 09:34:08.614 INFO  (qtp606548741-20) [   x:ProgettoIR-indice] o.a.s.c.S.Request [ProgettoIR-indice]  webapp=/solr path=/admin/ping params={wt=javabin&version=2} status=0 QTime=1
2016-12-16 09:34:47.540 INFO  (qtp606548741-18) [   x:ProgettoIR-indice] o.a.s.c.S.Request [ProgettoIR-indice]  webapp=/solr path=/admin/ping params={wt=javabin&version=2} hits=1 status=0 QTime=0
2016-12-16 09:34:47.540 INFO  (qtp606548741-18) [   x:ProgettoIR-indice] o.a.s.c.S.Request [ProgettoIR-indice]  webapp=/solr path=/admin/ping params={wt=javabin&version=2} status=0 QTime=0
2016-12-16 09:34:58.407 INFO  (qtp606548741-14) [   x:ProgettoIR-indice] o.a.s.c.S.Request [ProgettoIR-indice]  webapp=/solr path=/admin/ping params={wt=javabin&version=2} hits=1 status=0 QTime=0
2016-12-16 09:34:58.407 INFO  (qtp606548741-14) [   x:ProgettoIR-indice] o.a.s.c.S.Request [ProgettoIR-indice]  webapp=/solr path=/admin/ping params={wt=javabin&version=2} status=0 QTime=0
2016-12-16 09:36:00.570 INFO  (qtp606548741-18) [   x:ProgettoIR-indice] o.a.s.c.S.Request [ProgettoIR-indice]  webapp=/solr path=/admin/ping params={wt=javabin&version=2} hits=1 status=0 QTime=0
2016-12-16 09:36:00.570 INFO  (qtp606548741-18) [   x:ProgettoIR-indice] o.a.s.c.S.Request [ProgettoIR-indice]  webapp=/solr path=/admin/ping params={wt=javabin&version=2} status=0 QTime=1
2016-12-16 09:37:42.243 INFO  (qtp606548741-14) [   x:ProgettoIR-indice] o.a.s.c.S.Request [ProgettoIR-indice]  webapp=/solr path=/admin/ping params={wt=javabin&version=2} hits=1 status=0 QTime=0
2016-12-16 09:37:42.243 INFO  (qtp606548741-14) [   x:ProgettoIR-indice] o.a.s.c.S.Request [ProgettoIR-indice]  webapp=/solr path=/admin/ping params={wt=javabin&version=2} status=0 QTime=1
2016-12-16 09:38:28.728 INFO  (qtp606548741-18) [   x:ProgettoIR-indice] o.a.s.c.S.Request [ProgettoIR-indice]  webapp=/solr path=/admin/ping params={wt=javabin&version=2} hits=1 status=0 QTime=0
2016-12-16 09:38:28.729 INFO  (qtp606548741-18) [   x:ProgettoIR-indice] o.a.s.c.S.Request [ProgettoIR-indice]  webapp=/solr path=/admin/ping params={wt=javabin&version=2} status=0 QTime=0
2016-12-16 09:38:36.899 INFO  (qtp606548741-14) [   x:ProgettoIR-indice] o.a.s.c.S.Request [ProgettoIR-indice]  webapp=/solr path=/admin/ping params={wt=javabin&version=2} hits=1 status=0 QTime=0
2016-12-16 09:38:36.899 INFO  (qtp606548741-14) [   x:ProgettoIR-indice] o.a.s.c.S.Request [ProgettoIR-indice]  webapp=/solr path=/admin/ping params={wt=javabin&version=2} status=0 QTime=1
2016-12-16 09:39:03.908 INFO  (qtp606548741-16) [   x:ProgettoIR-indice] o.a.s.c.S.Request [ProgettoIR-indice]  webapp=/solr path=/admin/ping params={wt=javabin&version=2} hits=1 status=0 QTime=0
2016-12-16 09:39:03.908 INFO  (qtp606548741-16) [   x:ProgettoIR-indice] o.a.s.c.S.Request [ProgettoIR-indice]  webapp=/solr path=/admin/ping params={wt=javabin&version=2} status=0 QTime=1
2016-12-16 09:39:10.594 INFO  (qtp606548741-18) [   x:ProgettoIR-indice] o.a.s.c.S.Request [ProgettoIR-indice]  webapp=/solr path=/admin/ping params={wt=javabin&version=2} hits=1 status=0 QTime=0
2016-12-16 09:39:10.595 INFO  (qtp606548741-18) [   x:ProgettoIR-indice] o.a.s.c.S.Request [ProgettoIR-indice]  webapp=/solr path=/admin/ping params={wt=javabin&version=2} status=0 QTime=0
2016-12-16 09:41:01.306 INFO  (qtp606548741-16) [   x:ProgettoIR-indice] o.a.s.c.S.Request [ProgettoIR-indice]  webapp=/solr path=/admin/ping params={wt=javabin&version=2} hits=1 status=0 QTime=0
2016-12-16 09:41:01.306 INFO  (qtp606548741-16) [   x:ProgettoIR-indice] o.a.s.c.S.Request [ProgettoIR-indice]  webapp=/solr path=/admin/ping params={wt=javabin&version=2} status=0 QTime=0
2016-12-16 09:41:13.141 INFO  (qtp606548741-18) [   x:ProgettoIR-indice] o.a.s.c.S.Request [ProgettoIR-indice]  webapp=/solr path=/admin/ping params={wt=javabin&version=2} hits=1 status=0 QTime=0
2016-12-16 09:41:13.142 INFO  (qtp606548741-18) [   x:ProgettoIR-indice] o.a.s.c.S.Request [ProgettoIR-indice]  webapp=/solr path=/admin/ping params={wt=javabin&version=2} status=0 QTime=0
2016-12-16 09:42:20.873 INFO  (qtp606548741-16) [   x:ProgettoIR-indice] o.a.s.c.S.Request [ProgettoIR-indice]  webapp=/solr path=/admin/ping params={wt=javabin&version=2} hits=1 status=0 QTime=0
2016-12-16 09:42:20.873 INFO  (qtp606548741-16) [   x:ProgettoIR-indice] o.a.s.c.S.Request [ProgettoIR-indice]  webapp=/solr path=/admin/ping params={wt=javabin&version=2} status=0 QTime=0
2016-12-16 09:42:23.771 INFO  (qtp606548741-20) [   x:ProgettoIR-indice] o.a.s.c.S.Request [ProgettoIR-indice]  webapp=/solr path=/admin/ping params={wt=javabin&version=2} hits=1 status=0 QTime=0
2016-12-16 09:42:23.771 INFO  (qtp606548741-20) [   x:ProgettoIR-indice] o.a.s.c.S.Request [ProgettoIR-indice]  webapp=/solr path=/admin/ping params={wt=javabin&version=2} status=0 QTime=0
2016-12-16 09:42:26.610 INFO  (qtp606548741-18) [   x:ProgettoIR-indice] o.a.s.c.S.Request [ProgettoIR-indice]  webapp=/solr path=/admin/ping params={wt=javabin&version=2} hits=1 status=0 QTime=1
2016-12-16 09:42:26.610 INFO  (qtp606548741-18) [   x:ProgettoIR-indice] o.a.s.c.S.Request [ProgettoIR-indice]  webapp=/solr path=/admin/ping params={wt=javabin&version=2} status=0 QTime=1
2016-12-16 09:42:40.450 INFO  (qtp606548741-14) [   x:ProgettoIR-indice] o.a.s.c.S.Request [ProgettoIR-indice]  webapp=/solr path=/admin/ping params={wt=javabin&version=2} hits=1 status=0 QTime=0
2016-12-16 09:42:40.450 INFO  (qtp606548741-14) [   x:ProgettoIR-indice] o.a.s.c.S.Request [ProgettoIR-indice]  webapp=/solr path=/admin/ping params={wt=javabin&version=2} status=0 QTime=1
2016-12-16 09:43:06.518 INFO  (qtp606548741-20) [   x:ProgettoIR-indice] o.a.s.c.S.Request [ProgettoIR-indice]  webapp=/solr path=/admin/ping params={wt=javabin&version=2} hits=1 status=0 QTime=0
2016-12-16 09:43:06.518 INFO  (qtp606548741-20) [   x:ProgettoIR-indice] o.a.s.c.S.Request [ProgettoIR-indice]  webapp=/solr path=/admin/ping params={wt=javabin&version=2} status=0 QTime=0
2016-12-16 09:43:33.010 INFO  (qtp606548741-14) [   x:ProgettoIR-indice] o.a.s.c.S.Request [ProgettoIR-indice]  webapp=/solr path=/admin/ping params={wt=javabin&version=2} hits=1 status=0 QTime=0
2016-12-16 09:43:33.010 INFO  (qtp606548741-14) [   x:ProgettoIR-indice] o.a.s.c.S.Request [ProgettoIR-indice]  webapp=/solr path=/admin/ping params={wt=javabin&version=2} status=0 QTime=1
2016-12-16 09:43:41.799 INFO  (qtp606548741-12) [   x:ProgettoIR-indice] o.a.s.c.S.Request [ProgettoIR-indice]  webapp=/solr path=/admin/ping params={wt=javabin&version=2} hits=1 status=0 QTime=0
2016-12-16 09:43:41.799 INFO  (qtp606548741-12) [   x:ProgettoIR-indice] o.a.s.c.S.Request [ProgettoIR-indice]  webapp=/solr path=/admin/ping params={wt=javabin&version=2} status=0 QTime=0
2016-12-16 09:44:33.949 INFO  (qtp606548741-20) [   x:ProgettoIR-indice] o.a.s.c.S.Request [ProgettoIR-indice]  webapp=/solr path=/admin/ping params={wt=javabin&version=2} hits=1 status=0 QTime=0
2016-12-16 09:44:33.949 INFO  (qtp606548741-20) [   x:ProgettoIR-indice] o.a.s.c.S.Request [ProgettoIR-indice]  webapp=/solr path=/admin/ping params={wt=javabin&version=2} status=0 QTime=1
2016-12-16 09:44:57.600 INFO  (qtp606548741-19) [   x:ProgettoIR-indice] o.a.s.c.S.Request [ProgettoIR-indice]  webapp=/solr path=/admin/ping params={wt=javabin&version=2} hits=1 status=0 QTime=0
2016-12-16 09:44:57.600 INFO  (qtp606548741-19) [   x:ProgettoIR-indice] o.a.s.c.S.Request [ProgettoIR-indice]  webapp=/solr path=/admin/ping params={wt=javabin&version=2} status=0 QTime=1
2016-12-16 09:45:09.795 INFO  (qtp606548741-12) [   x:ProgettoIR-indice] o.a.s.c.S.Request [ProgettoIR-indice]  webapp=/solr path=/admin/ping params={wt=javabin&version=2} hits=1 status=0 QTime=0
2016-12-16 09:45:09.795 INFO  (qtp606548741-12) [   x:ProgettoIR-indice] o.a.s.c.S.Request [ProgettoIR-indice]  webapp=/solr path=/admin/ping params={wt=javabin&version=2} status=0 QTime=0
2016-12-16 09:45:09.890 INFO  (qtp606548741-18) [   x:ProgettoIR-indice] o.a.s.u.DirectUpdateHandler2 [ProgettoIR-indice] REMOVING ALL DOCUMENTS FROM INDEX
2016-12-16 09:45:09.891 INFO  (qtp606548741-18) [   x:ProgettoIR-indice] o.a.s.u.p.LogUpdateProcessorFactory [ProgettoIR-indice]  webapp=/solr path=/update params={wt=javabin&version=2}{deleteByQuery=*:*} 0 47
2016-12-16 09:45:09.998 INFO  (qtp606548741-14) [   x:ProgettoIR-indice] o.a.s.u.p.LogUpdateProcessorFactory [ProgettoIR-indice]  webapp=/solr path=/update params={wt=javabin&version=2}{add=[1]} 0 98
2016-12-16 09:45:10.006 INFO  (qtp606548741-15) [   x:ProgettoIR-indice] o.a.s.u.DirectUpdateHandler2 start commit{,optimize=false,openSearcher=true,waitSearcher=true,expungeDeletes=false,softCommit=false,prepareCommit=false}
2016-12-16 09:45:10.007 INFO  (qtp606548741-15) [   x:ProgettoIR-indice] o.a.s.u.SolrIndexWriter Calling setCommitData with IW:org.apache.solr.update.SolrIndexWriter@3b160982
2016-12-16 09:45:10.572 INFO  (qtp606548741-15) [   x:ProgettoIR-indice] o.a.s.s.SolrIndexSearcher Opening [Searcher@2ebfbd1c[ProgettoIR-indice] main]
2016-12-16 09:45:10.574 INFO  (qtp606548741-15) [   x:ProgettoIR-indice] o.a.s.u.DirectUpdateHandler2 end_commit_flush
2016-12-16 09:45:10.575 INFO  (searcherExecutor-7-thread-1-processing-x:ProgettoIR-indice) [   x:ProgettoIR-indice] o.a.s.c.SolrCore [ProgettoIR-indice] Registered new searcher Searcher@2ebfbd1c[ProgettoIR-indice] main{ExitableDirectoryReader(UninvertingDirectoryReader(Uninverting(_5k(6.3.0):C1)))}
2016-12-16 09:45:10.577 INFO  (qtp606548741-15) [   x:ProgettoIR-indice] o.a.s.u.p.LogUpdateProcessorFactory [ProgettoIR-indice]  webapp=/solr path=/update params={waitSearcher=true&commit=true&softCommit=false&wt=javabin&version=2}{commit=} 0 572
2016-12-16 10:03:42.354 INFO  (ShutdownMonitor) [   ] o.e.j.s.ServerConnector Stopped ServerConnector@2362f559{HTTP/1.1,[http/1.1]}{0.0.0.0:8983}
2016-12-16 10:03:42.355 INFO  (ShutdownMonitor) [   ] o.a.s.c.CoreContainer Shutting down CoreContainer instance=226744878
2016-12-16 10:03:42.358 INFO  (coreCloseExecutor-11-thread-1) [   x:ProgettoIR-indice] o.a.s.c.SolrCore [ProgettoIR-indice]  CLOSING SolrCore org.apache.solr.core.SolrCore@26bbd853
2016-12-16 10:03:42.369 WARN  (ShutdownMonitor) [   ] o.e.j.s.ServletContextHandler ServletContextHandler.setHandler should not be called directly. Use insertHandler or setSessionHandler etc.
