2016-12-16 11:56:35.705 INFO  (main) [   ] o.e.j.s.Server jetty-9.3.8.v20160314
2016-12-16 11:56:36.059 INFO  (main) [   ] o.a.s.s.SolrDispatchFilter  ___      _       Welcome to Apache Solr™ version 6.3.0
2016-12-16 11:56:36.060 INFO  (main) [   ] o.a.s.s.SolrDispatchFilter / __| ___| |_ _   Starting in standalone mode on port 8983
2016-12-16 11:56:36.060 INFO  (main) [   ] o.a.s.s.SolrDispatchFilter \__ \/ _ \ | '_|  Install dir: /home/TheEdoardo93/git/SearchEngineForTheUnimibDiscoWebsite/solr-6.3.0
2016-12-16 11:56:36.138 INFO  (main) [   ] o.a.s.s.SolrDispatchFilter |___/\___/_|_|    Start time: 2016-12-16T11:56:36.061Z
2016-12-16 11:56:36.139 INFO  (main) [   ] o.a.s.s.StartupLoggingUtils Property solr.log.muteconsole given. Muting ConsoleAppender named CONSOLE
2016-12-16 11:56:36.168 INFO  (main) [   ] o.a.s.c.SolrResourceLoader Using system property solr.solr.home: /home/TheEdoardo93/git/SearchEngineForTheUnimibDiscoWebsite/solr-6.3.0/server/solr
2016-12-16 11:56:36.177 INFO  (main) [   ] o.a.s.c.SolrXmlConfig Loading container configuration from /home/TheEdoardo93/git/SearchEngineForTheUnimibDiscoWebsite/solr-6.3.0/server/solr/solr.xml
2016-12-16 11:56:36.476 INFO  (main) [   ] o.a.s.u.UpdateShardHandler Creating UpdateShardHandler HTTP client with params: socketTimeout=600000&connTimeout=60000&retry=true
2016-12-16 11:56:36.535 INFO  (main) [   ] o.a.s.c.CorePropertiesLocator Found 1 core definitions underneath /home/TheEdoardo93/git/SearchEngineForTheUnimibDiscoWebsite/solr-6.3.0/server/solr
2016-12-16 11:56:36.544 INFO  (main) [   ] o.a.s.c.CorePropertiesLocator Cores are: [ProgettoIR-indice]
2016-12-16 11:56:36.588 INFO  (main) [   ] o.e.j.s.ServerConnector Started ServerConnector@2362f559{HTTP/1.1,[http/1.1]}{0.0.0.0:8983}
2016-12-16 11:56:36.589 INFO  (main) [   ] o.e.j.s.Server Started @1513ms
2016-12-16 11:56:36.606 INFO  (coreLoadExecutor-6-thread-1) [   ] o.a.s.c.SolrConfig Using Lucene MatchVersion: 4.5.0
2016-12-16 11:56:36.729 INFO  (coreLoadExecutor-6-thread-1) [   ] o.a.s.s.IndexSchema [ProgettoIR-indice] Schema name=ProgettoIR-indice
2016-12-16 11:56:36.774 WARN  (coreLoadExecutor-6-thread-1) [   ] o.a.s.s.FieldTypePluginLoader TokenizerFactory is using deprecated 4.5.0 emulation. You should at some point declare and reindex to at least 6.0, because 5.x emulation is deprecated and will be removed in 7.0
2016-12-16 11:56:36.782 WARN  (coreLoadExecutor-6-thread-1) [   ] o.a.s.s.FieldTypePluginLoader TokenFilterFactory is using deprecated 4.5.0 emulation. You should at some point declare and reindex to at least 6.0, because 5.x emulation is deprecated and will be removed in 7.0
2016-12-16 11:56:36.806 WARN  (coreLoadExecutor-6-thread-1) [   ] o.a.s.s.FieldTypePluginLoader TokenizerFactory is using deprecated 4.5.0 emulation. You should at some point declare and reindex to at least 6.0, because 5.x emulation is deprecated and will be removed in 7.0
2016-12-16 11:56:36.806 WARN  (coreLoadExecutor-6-thread-1) [   ] o.a.s.s.FieldTypePluginLoader TokenFilterFactory is using deprecated 4.5.0 emulation. You should at some point declare and reindex to at least 6.0, because 5.x emulation is deprecated and will be removed in 7.0
2016-12-16 11:56:36.809 WARN  (coreLoadExecutor-6-thread-1) [   ] o.a.s.s.FieldTypePluginLoader CharFilterFactory is using deprecated 4.5.0 emulation. You should at some point declare and reindex to at least 6.0, because 5.x emulation is deprecated and will be removed in 7.0
2016-12-16 11:56:36.828 WARN  (coreLoadExecutor-6-thread-1) [   ] o.a.s.s.FieldTypePluginLoader TokenizerFactory is using deprecated 4.5.0 emulation. You should at some point declare and reindex to at least 6.0, because 5.x emulation is deprecated and will be removed in 7.0
2016-12-16 11:56:36.828 WARN  (coreLoadExecutor-6-thread-1) [   ] o.a.s.s.FieldTypePluginLoader TokenFilterFactory is using deprecated 4.5.0 emulation. You should at some point declare and reindex to at least 6.0, because 5.x emulation is deprecated and will be removed in 7.0
2016-12-16 11:56:36.831 WARN  (coreLoadExecutor-6-thread-1) [   ] o.a.s.s.FieldTypePluginLoader TokenFilterFactory is using deprecated 4.5.0 emulation. You should at some point declare and reindex to at least 6.0, because 5.x emulation is deprecated and will be removed in 7.0
2016-12-16 11:56:36.832 WARN  (coreLoadExecutor-6-thread-1) [   ] o.a.s.s.FieldTypePluginLoader TokenFilterFactory is using deprecated 4.5.0 emulation. You should at some point declare and reindex to at least 6.0, because 5.x emulation is deprecated and will be removed in 7.0
2016-12-16 11:56:36.834 WARN  (coreLoadExecutor-6-thread-1) [   ] o.a.s.s.FieldTypePluginLoader TokenFilterFactory is using deprecated 4.5.0 emulation. You should at some point declare and reindex to at least 6.0, because 5.x emulation is deprecated and will be removed in 7.0
2016-12-16 11:56:36.834 WARN  (coreLoadExecutor-6-thread-1) [   ] o.a.s.s.FieldTypePluginLoader TokenFilterFactory is using deprecated 4.5.0 emulation. You should at some point declare and reindex to at least 6.0, because 5.x emulation is deprecated and will be removed in 7.0
2016-12-16 11:56:36.836 WARN  (coreLoadExecutor-6-thread-1) [   ] o.a.s.s.FieldTypePluginLoader TokenFilterFactory is using deprecated 4.5.0 emulation. You should at some point declare and reindex to at least 6.0, because 5.x emulation is deprecated and will be removed in 7.0
2016-12-16 11:56:36.836 WARN  (coreLoadExecutor-6-thread-1) [   ] o.a.s.s.FieldTypePluginLoader TokenFilterFactory is using deprecated 4.5.0 emulation. You should at some point declare and reindex to at least 6.0, because 5.x emulation is deprecated and will be removed in 7.0
2016-12-16 11:56:36.840 WARN  (coreLoadExecutor-6-thread-1) [   ] o.a.s.s.FieldTypePluginLoader CharFilterFactory is using deprecated 4.5.0 emulation. You should at some point declare and reindex to at least 6.0, because 5.x emulation is deprecated and will be removed in 7.0
2016-12-16 11:56:36.840 WARN  (coreLoadExecutor-6-thread-1) [   ] o.a.s.s.FieldTypePluginLoader TokenizerFactory is using deprecated 4.5.0 emulation. You should at some point declare and reindex to at least 6.0, because 5.x emulation is deprecated and will be removed in 7.0
2016-12-16 11:56:36.841 WARN  (coreLoadExecutor-6-thread-1) [   ] o.a.s.s.FieldTypePluginLoader TokenFilterFactory is using deprecated 4.5.0 emulation. You should at some point declare and reindex to at least 6.0, because 5.x emulation is deprecated and will be removed in 7.0
2016-12-16 11:56:36.841 WARN  (coreLoadExecutor-6-thread-1) [   ] o.a.s.s.FieldTypePluginLoader TokenFilterFactory is using deprecated 4.5.0 emulation. You should at some point declare and reindex to at least 6.0, because 5.x emulation is deprecated and will be removed in 7.0
2016-12-16 11:56:36.841 WARN  (coreLoadExecutor-6-thread-1) [   ] o.a.s.s.FieldTypePluginLoader TokenFilterFactory is using deprecated 4.5.0 emulation. You should at some point declare and reindex to at least 6.0, because 5.x emulation is deprecated and will be removed in 7.0
2016-12-16 11:56:36.841 WARN  (coreLoadExecutor-6-thread-1) [   ] o.a.s.s.FieldTypePluginLoader TokenFilterFactory is using deprecated 4.5.0 emulation. You should at some point declare and reindex to at least 6.0, because 5.x emulation is deprecated and will be removed in 7.0
2016-12-16 11:56:36.842 WARN  (coreLoadExecutor-6-thread-1) [   ] o.a.s.s.FieldTypePluginLoader TokenFilterFactory is using deprecated 4.5.0 emulation. You should at some point declare and reindex to at least 6.0, because 5.x emulation is deprecated and will be removed in 7.0
2016-12-16 11:56:36.842 WARN  (coreLoadExecutor-6-thread-1) [   ] o.a.s.s.FieldTypePluginLoader TokenFilterFactory is using deprecated 4.5.0 emulation. You should at some point declare and reindex to at least 6.0, because 5.x emulation is deprecated and will be removed in 7.0
2016-12-16 11:56:36.847 WARN  (coreLoadExecutor-6-thread-1) [   ] o.a.s.s.IndexSchema [ProgettoIR-indice] default search field in schema is paginaHtmlDocente. WARNING: Deprecated, please use 'df' on request instead.
2016-12-16 11:56:36.848 WARN  (coreLoadExecutor-6-thread-1) [   ] o.a.s.s.IndexSchema [ProgettoIR-indice] query parser default operator is OR. WARNING: Deprecated, please use 'q.op' on request instead.
2016-12-16 11:56:36.850 INFO  (coreLoadExecutor-6-thread-1) [   ] o.a.s.s.IndexSchema Loaded schema ProgettoIR-indice/1.6 with uniqueid field id
2016-12-16 11:56:36.911 INFO  (coreLoadExecutor-6-thread-1) [   ] o.a.s.c.CoreContainer Creating SolrCore 'ProgettoIR-indice' using configuration from instancedir /home/TheEdoardo93/git/SearchEngineForTheUnimibDiscoWebsite/solr-6.3.0/server/solr/ProgettoIR/ProgettoIR-indice
2016-12-16 11:56:36.958 INFO  (coreLoadExecutor-6-thread-1) [   x:ProgettoIR-indice] o.a.s.c.SolrCore [[ProgettoIR-indice] ] Opening new SolrCore at [/home/TheEdoardo93/git/SearchEngineForTheUnimibDiscoWebsite/solr-6.3.0/server/solr/ProgettoIR/ProgettoIR-indice], dataDir=[/home/TheEdoardo93/git/SearchEngineForTheUnimibDiscoWebsite/solr-6.3.0/server/solr/ProgettoIR/ProgettoIR-indice/data/]
2016-12-16 11:56:37.298 INFO  (coreLoadExecutor-6-thread-1) [   x:ProgettoIR-indice] o.a.s.u.CommitTracker Hard AutoCommit: disabled
2016-12-16 11:56:37.299 INFO  (coreLoadExecutor-6-thread-1) [   x:ProgettoIR-indice] o.a.s.u.CommitTracker Soft AutoCommit: disabled
2016-12-16 11:56:37.351 INFO  (coreLoadExecutor-6-thread-1) [   x:ProgettoIR-indice] o.a.s.s.SolrIndexSearcher Opening [Searcher@7a3bd109[ProgettoIR-indice] main]
2016-12-16 11:56:37.359 INFO  (coreLoadExecutor-6-thread-1) [   x:ProgettoIR-indice] o.a.s.r.ManagedResourceStorage File-based storage initialized to use dir: /home/TheEdoardo93/git/SearchEngineForTheUnimibDiscoWebsite/solr-6.3.0/server/solr/ProgettoIR/ProgettoIR-indice/conf
2016-12-16 11:56:37.378 INFO  (coreLoadExecutor-6-thread-1) [   x:ProgettoIR-indice] o.a.s.h.ReplicationHandler Commits will be reserved for  10000
2016-12-16 11:56:37.396 INFO  (searcherExecutor-7-thread-1-processing-x:ProgettoIR-indice) [   x:ProgettoIR-indice] o.a.s.c.SolrCore [ProgettoIR-indice] Registered new searcher Searcher@7a3bd109[ProgettoIR-indice] main{ExitableDirectoryReader(UninvertingDirectoryReader())}
2016-12-16 11:56:43.621 INFO  (qtp606548741-12) [   x:ProgettoIR-indice] o.a.s.c.S.Request [ProgettoIR-indice]  webapp=/solr path=/config params={wt=json&_=1481889403514} status=0 QTime=12
2016-12-16 11:56:43.636 INFO  (qtp606548741-14) [   ] o.a.s.s.HttpSolrCall [admin] webapp=null path=/admin/cores params={indexInfo=false&wt=json&_=1481889403013} status=0 QTime=34
2016-12-16 11:56:43.643 INFO  (qtp606548741-21) [   x:ProgettoIR-indice] o.a.s.c.S.Request [ProgettoIR-indice]  webapp=/solr path=/admin/luke params={show=schema&wt=json&_=1481889403513} status=0 QTime=38
2016-12-16 11:56:43.688 INFO  (qtp606548741-17) [   ] o.a.s.s.HttpSolrCall [admin] webapp=null path=/admin/info/system params={wt=json&_=1481889403015} status=0 QTime=85
2016-12-16 11:56:43.885 INFO  (qtp606548741-17) [   x:ProgettoIR-indice] o.a.s.c.S.Request [ProgettoIR-indice]  webapp=/solr path=/admin/luke params={numTerms=0&wt=json&_=1481889403513} status=0 QTime=0
2016-12-16 11:56:44.846 INFO  (qtp606548741-20) [   ] o.a.s.s.HttpSolrCall [admin] webapp=null path=/admin/cores params={indexInfo=false&wt=json&_=1481889403013} status=0 QTime=0
2016-12-16 11:56:44.864 INFO  (qtp606548741-21) [   x:ProgettoIR-indice] o.a.s.c.S.Request [ProgettoIR-indice]  webapp=/solr path=/admin/luke params={numTerms=0&show=index&wt=json&_=1481889403513} status=0 QTime=0
2016-12-16 11:56:44.869 INFO  (qtp606548741-14) [   x:ProgettoIR-indice] o.a.s.c.S.Request [ProgettoIR-indice]  webapp=/solr path=/replication params={wt=json&command=details&_=1481889404817} status=0 QTime=2
2016-12-16 11:56:44.870 INFO  (qtp606548741-18) [   x:ProgettoIR-indice] o.a.s.c.S.Request [ProgettoIR-indice]  webapp=/solr path=/admin/ping params={action=status&wt=json&_=1481889403015&ts=1481889403015} status=503 QTime=2
2016-12-16 11:56:44.893 INFO  (qtp606548741-12) [   ] o.a.s.s.HttpSolrCall [admin] webapp=null path=/admin/info/system params={wt=json&_=1481889403015} status=0 QTime=45
2016-12-16 11:56:44.916 INFO  (qtp606548741-16) [   x:ProgettoIR-indice] o.a.s.c.S.Request [ProgettoIR-indice]  webapp=/solr path=/admin/system params={wt=json&_=1481889404815} status=0 QTime=49
2016-12-16 11:56:46.933 INFO  (qtp606548741-14) [   ] o.a.s.s.HttpSolrCall [admin] webapp=null path=/admin/cores params={indexInfo=false&wt=json&_=1481889406722} status=0 QTime=0
2016-12-16 11:56:46.948 INFO  (qtp606548741-12) [   ] o.a.s.s.HttpSolrCall [admin] webapp=null path=/admin/info/system params={wt=json&_=1481889406723} status=0 QTime=12
2016-12-16 11:56:46.955 INFO  (qtp606548741-17) [   x:ProgettoIR-indice] o.a.s.c.S.Request [ProgettoIR-indice]  webapp=/solr path=/admin/luke params={numTerms=0&show=index&wt=json&_=1481889406914} status=0 QTime=0
2016-12-16 11:56:46.957 INFO  (qtp606548741-19) [   x:ProgettoIR-indice] o.a.s.c.S.Request [ProgettoIR-indice]  webapp=/solr path=/admin/ping params={action=status&wt=json&_=1481889406724&ts=1481889406724} status=503 QTime=0
2016-12-16 11:56:46.955 INFO  (qtp606548741-21) [   x:ProgettoIR-indice] o.a.s.c.S.Request [ProgettoIR-indice]  webapp=/solr path=/replication params={wt=json&command=details&_=1481889406915} status=0 QTime=0
2016-12-16 11:56:46.969 INFO  (qtp606548741-13) [   x:ProgettoIR-indice] o.a.s.c.S.Request [ProgettoIR-indice]  webapp=/solr path=/admin/system params={wt=json&_=1481889406914} status=0 QTime=12
2016-12-16 11:58:26.674 INFO  (qtp606548741-21) [   x:ProgettoIR-indice] o.a.s.c.S.Request [ProgettoIR-indice]  webapp=/solr path=/admin/ping params={wt=json&_=1481889406724&ts=1481889406724} hits=0 status=0 QTime=30
2016-12-16 11:58:26.674 INFO  (qtp606548741-21) [   x:ProgettoIR-indice] o.a.s.c.S.Request [ProgettoIR-indice]  webapp=/solr path=/admin/ping params={wt=json&_=1481889406724&ts=1481889406724} status=0 QTime=30
2016-12-16 11:58:29.164 INFO  (qtp606548741-18) [   ] o.a.s.s.HttpSolrCall [admin] webapp=null path=/admin/cores params={indexInfo=false&wt=json&_=1481889406722} status=0 QTime=0
2016-12-16 11:58:29.168 INFO  (qtp606548741-17) [   x:ProgettoIR-indice] o.a.s.c.S.Request [ProgettoIR-indice]  webapp=/solr path=/admin/luke params={show=schema&wt=json&_=1481889406914} status=0 QTime=0
2016-12-16 11:58:29.180 INFO  (qtp606548741-14) [   ] o.a.s.s.HttpSolrCall [admin] webapp=null path=/admin/info/system params={wt=json&_=1481889406723} status=0 QTime=14
2016-12-16 11:58:29.185 INFO  (qtp606548741-13) [   x:ProgettoIR-indice] o.a.s.c.S.Request [ProgettoIR-indice]  webapp=/solr path=/config params={wt=json&_=1481889509084} status=0 QTime=1
2016-12-16 11:58:29.330 INFO  (qtp606548741-19) [   x:ProgettoIR-indice] o.a.s.c.S.Request [ProgettoIR-indice]  webapp=/solr path=/admin/luke params={numTerms=0&wt=json&_=1481889406914} status=0 QTime=0
2016-12-16 11:58:31.713 INFO  (qtp606548741-14) [   ] o.a.s.s.HttpSolrCall [admin] webapp=null path=/admin/cores params={indexInfo=false&wt=json&_=1481889406722} status=0 QTime=0
2016-12-16 11:58:31.726 INFO  (qtp606548741-12) [   ] o.a.s.s.HttpSolrCall [admin] webapp=null path=/admin/info/system params={wt=json&_=1481889406723} status=0 QTime=11
2016-12-16 11:58:31.724 INFO  (qtp606548741-20) [   x:ProgettoIR-indice] o.a.s.c.S.Request [ProgettoIR-indice]  webapp=/solr path=/admin/luke params={show=schema&wt=json&_=1481889406914} status=0 QTime=0
2016-12-16 11:58:31.858 INFO  (qtp606548741-18) [   x:ProgettoIR-indice] o.a.s.c.S.Request [ProgettoIR-indice]  webapp=/solr path=/admin/luke params={numTerms=0&wt=json&_=1481889406914} status=0 QTime=0
2016-12-16 11:58:37.247 INFO  (qtp606548741-17) [   ] o.a.s.s.HttpSolrCall [admin] webapp=null path=/admin/cores params={indexInfo=false&wt=json&_=1481889406722} status=0 QTime=0
2016-12-16 11:58:37.259 INFO  (qtp606548741-21) [   ] o.a.s.s.HttpSolrCall [admin] webapp=null path=/admin/info/system params={wt=json&_=1481889406723} status=0 QTime=10
2016-12-16 11:58:38.518 INFO  (qtp606548741-13) [   x:ProgettoIR-indice] o.a.s.c.S.Request [ProgettoIR-indice]  webapp=/solr path=/select params={q=*:*&indent=on&wt=json&_=1481889517151} hits=0 status=0 QTime=0
2016-12-16 11:58:48.284 INFO  (qtp606548741-16) [   x:ProgettoIR-indice] o.a.s.c.S.Request [ProgettoIR-indice]  webapp=/solr path=/admin/ping params={wt=javabin&version=2} hits=0 status=0 QTime=0
2016-12-16 11:58:48.285 INFO  (qtp606548741-16) [   x:ProgettoIR-indice] o.a.s.c.S.Request [ProgettoIR-indice]  webapp=/solr path=/admin/ping params={wt=javabin&version=2} status=0 QTime=1
2016-12-16 11:58:48.411 INFO  (qtp606548741-12) [   x:ProgettoIR-indice] o.a.s.u.DirectUpdateHandler2 [ProgettoIR-indice] REMOVING ALL DOCUMENTS FROM INDEX
2016-12-16 11:58:48.413 INFO  (qtp606548741-12) [   x:ProgettoIR-indice] o.a.s.u.p.LogUpdateProcessorFactory [ProgettoIR-indice]  webapp=/solr path=/update params={wt=javabin&version=2}{deleteByQuery=*:*} 0 62
2016-12-16 11:58:48.424 INFO  (qtp606548741-18) [   x:ProgettoIR-indice] o.a.s.u.DirectUpdateHandler2 start commit{,optimize=false,openSearcher=true,waitSearcher=true,expungeDeletes=false,softCommit=false,prepareCommit=false}
2016-12-16 11:58:48.424 INFO  (qtp606548741-18) [   x:ProgettoIR-indice] o.a.s.u.SolrIndexWriter Calling setCommitData with IW:org.apache.solr.update.SolrIndexWriter@431312c0
2016-12-16 11:58:48.503 INFO  (qtp606548741-18) [   x:ProgettoIR-indice] o.a.s.s.SolrIndexSearcher Opening [Searcher@5321b1[ProgettoIR-indice] main]
2016-12-16 11:58:48.506 INFO  (qtp606548741-18) [   x:ProgettoIR-indice] o.a.s.u.DirectUpdateHandler2 end_commit_flush
2016-12-16 11:58:48.506 INFO  (searcherExecutor-7-thread-1-processing-x:ProgettoIR-indice) [   x:ProgettoIR-indice] o.a.s.c.SolrCore [ProgettoIR-indice] Registered new searcher Searcher@5321b1[ProgettoIR-indice] main{ExitableDirectoryReader(UninvertingDirectoryReader())}
2016-12-16 11:58:48.507 INFO  (qtp606548741-18) [   x:ProgettoIR-indice] o.a.s.u.p.LogUpdateProcessorFactory [ProgettoIR-indice]  webapp=/solr path=/update params={waitSearcher=true&commit=true&softCommit=false&wt=javabin&version=2}{commit=} 0 84
2016-12-16 11:58:48.520 INFO  (qtp606548741-17) [   x:ProgettoIR-indice] o.a.s.u.p.LogUpdateProcessorFactory [ProgettoIR-indice]  webapp=/solr path=/update params={wt=javabin&version=2}{} 0 3
2016-12-16 11:58:48.521 ERROR (qtp606548741-17) [   x:ProgettoIR-indice] o.a.s.h.RequestHandlerBase org.apache.solr.common.SolrException: Document is missing mandatory uniqueKey field: id
	at org.apache.solr.update.AddUpdateCommand.getIndexedId(AddUpdateCommand.java:97)
	at org.apache.solr.update.processor.DistributedUpdateProcessor.versionAdd(DistributedUpdateProcessor.java:970)
	at org.apache.solr.update.processor.DistributedUpdateProcessor.processAdd(DistributedUpdateProcessor.java:738)
	at org.apache.solr.update.processor.LogUpdateProcessorFactory$LogUpdateProcessor.processAdd(LogUpdateProcessorFactory.java:103)
	at org.apache.solr.handler.loader.XMLLoader.processUpdate(XMLLoader.java:250)
	at org.apache.solr.handler.loader.XMLLoader.load(XMLLoader.java:177)
	at org.apache.solr.handler.UpdateRequestHandler$1.load(UpdateRequestHandler.java:97)
	at org.apache.solr.handler.ContentStreamHandlerBase.handleRequestBody(ContentStreamHandlerBase.java:68)
	at org.apache.solr.handler.RequestHandlerBase.handleRequest(RequestHandlerBase.java:153)
	at org.apache.solr.core.SolrCore.execute(SolrCore.java:2213)
	at org.apache.solr.servlet.HttpSolrCall.execute(HttpSolrCall.java:654)
	at org.apache.solr.servlet.HttpSolrCall.call(HttpSolrCall.java:460)
	at org.apache.solr.servlet.SolrDispatchFilter.doFilter(SolrDispatchFilter.java:303)
	at org.apache.solr.servlet.SolrDispatchFilter.doFilter(SolrDispatchFilter.java:254)
	at org.eclipse.jetty.servlet.ServletHandler$CachedChain.doFilter(ServletHandler.java:1668)
	at org.eclipse.jetty.servlet.ServletHandler.doHandle(ServletHandler.java:581)
	at org.eclipse.jetty.server.handler.ScopedHandler.handle(ScopedHandler.java:143)
	at org.eclipse.jetty.security.SecurityHandler.handle(SecurityHandler.java:548)
	at org.eclipse.jetty.server.session.SessionHandler.doHandle(SessionHandler.java:226)
	at org.eclipse.jetty.server.handler.ContextHandler.doHandle(ContextHandler.java:1160)
	at org.eclipse.jetty.servlet.ServletHandler.doScope(ServletHandler.java:511)
	at org.eclipse.jetty.server.session.SessionHandler.doScope(SessionHandler.java:185)
	at org.eclipse.jetty.server.handler.ContextHandler.doScope(ContextHandler.java:1092)
	at org.eclipse.jetty.server.handler.ScopedHandler.handle(ScopedHandler.java:141)
	at org.eclipse.jetty.server.handler.ContextHandlerCollection.handle(ContextHandlerCollection.java:213)
	at org.eclipse.jetty.server.handler.HandlerCollection.handle(HandlerCollection.java:119)
	at org.eclipse.jetty.server.handler.HandlerWrapper.handle(HandlerWrapper.java:134)
	at org.eclipse.jetty.server.Server.handle(Server.java:518)
	at org.eclipse.jetty.server.HttpChannel.handle(HttpChannel.java:308)
	at org.eclipse.jetty.server.HttpConnection.onFillable(HttpConnection.java:244)
	at org.eclipse.jetty.io.AbstractConnection$ReadCallback.succeeded(AbstractConnection.java:273)
	at org.eclipse.jetty.io.FillInterest.fillable(FillInterest.java:95)
	at org.eclipse.jetty.io.SelectChannelEndPoint$2.run(SelectChannelEndPoint.java:93)
	at org.eclipse.jetty.util.thread.strategy.ExecuteProduceConsume.produceAndRun(ExecuteProduceConsume.java:246)
	at org.eclipse.jetty.util.thread.strategy.ExecuteProduceConsume.run(ExecuteProduceConsume.java:156)
	at org.eclipse.jetty.util.thread.QueuedThreadPool.runJob(QueuedThreadPool.java:654)
	at org.eclipse.jetty.util.thread.QueuedThreadPool$3.run(QueuedThreadPool.java:572)
	at java.lang.Thread.run(Thread.java:745)

2016-12-16 11:59:09.733 INFO  (ShutdownMonitor) [   ] o.e.j.s.ServerConnector Stopped ServerConnector@2362f559{HTTP/1.1,[http/1.1]}{0.0.0.0:8983}
2016-12-16 11:59:09.734 INFO  (ShutdownMonitor) [   ] o.a.s.c.CoreContainer Shutting down CoreContainer instance=226744878
2016-12-16 11:59:09.736 INFO  (coreCloseExecutor-11-thread-1) [   x:ProgettoIR-indice] o.a.s.c.SolrCore [ProgettoIR-indice]  CLOSING SolrCore org.apache.solr.core.SolrCore@7dfa2b71
2016-12-16 11:59:09.773 WARN  (ShutdownMonitor) [   ] o.e.j.s.ServletContextHandler ServletContextHandler.setHandler should not be called directly. Use insertHandler or setSessionHandler etc.
